%YAML 1.1
%TAG !u! tag:unity3d.com,2011:
--- !u!1001 &100100000
Prefab:
  m_ObjectHideFlags: 1
  serializedVersion: 2
  m_Modification:
    m_TransformParent: {fileID: 0}
    m_Modifications: []
    m_RemovedComponents: []
  m_ParentPrefab: {fileID: 0}
  m_RootGameObject: {fileID: 1991213154012522}
  m_IsPrefabParent: 1
--- !u!1 &1991213154012522
GameObject:
  m_ObjectHideFlags: 0
  m_PrefabParentObject: {fileID: 0}
  m_PrefabInternal: {fileID: 100100000}
  serializedVersion: 5
  m_Component:
  - component: {fileID: 4107875981031590}
  - component: {fileID: 114329851767192812}
  m_Layer: 0
  m_Name: doubleValues
  m_TagString: Untagged
  m_Icon: {fileID: 0}
  m_NavMeshLayer: 0
  m_StaticEditorFlags: 0
  m_IsActive: 1
--- !u!4 &4107875981031590
Transform:
  m_ObjectHideFlags: 1
  m_PrefabParentObject: {fileID: 0}
  m_PrefabInternal: {fileID: 100100000}
  m_GameObject: {fileID: 1991213154012522}
  m_LocalRotation: {x: 0, y: 0, z: 0, w: 1}
  m_LocalPosition: {x: 0, y: 0, z: 0}
  m_LocalScale: {x: 1, y: 1, z: 1}
  m_Children: []
  m_Father: {fileID: 0}
  m_RootOrder: 0
  m_LocalEulerAnglesHint: {x: 0, y: 0, z: 0}
--- !u!114 &114329851767192812
MonoBehaviour:
  m_ObjectHideFlags: 1
  m_PrefabParentObject: {fileID: 0}
  m_PrefabInternal: {fileID: 100100000}
  m_GameObject: {fileID: 1991213154012522}
  m_Enabled: 1
  m_EditorHideFlags: 0
  m_Script: {fileID: 11500000, guid: 9892bd66417b3814fa86e3528ae14b72, type: 3}
  m_Name: 
  m_EditorClassIdentifier: 
  names:
  - ShakeTime1
  - FovTime
  - FovDelta
  - BlurTime
  - BlurSize
  - ShakeTime2
  - ShakeTime3
  - ShakeTime4
  - ShakeTime5
  - ShakeTime6
  - BloodScale1
  - BloodTime1
  - TimeScaleTime
  - FovTime1
  - FovDelta1
  - FovTime2
  - FovDelta2
  - FovTime3
  - FovDelta3
  - BlurTime1
  - BlurSize1
  - ShakeSize1
  - ShakeSize2
  - ShakeSize3
  - ShakeSize4
  - ShakeSize5
  - ShakeSize6
  - DissolveTime
  - ShakeTime7
  - ShakeTime8
  - ShakeTime9
  - FovTime4
  - FovDelta4
  - ShakeSize7
  - ShakeSize8
  - ShakeSize9
  - FovTime5
  - FovDelta5
  - LandShakeTime
  - LandShakeSize
  values:
  - 0.833
  - 0.4
  - 2
  - 0.6
  - 10
  - 1.5
  - 2.667
  - 0.667
  - 1.5
  - 2.467
  - 5
  - 0.05
  - 2
  - 1.333
  - -8
  - 2.667
  - -8
  - 1.167
  - -8
  - 2.467
  - 10
  - 0.5
  - 0.5
  - 0.5
  - 0.5
  - 0.7
  - 0.7
  - 1.5
  - 1
  - 1
  - 0.733
  - 0.833
  - -3
  - 0.5
  - 0.5
  - 0.2
  - 0.833
  - -3
  - 0.3
  - 2
