5 - 45 loop stand
55 - 85 loop move
****************下面为额外骨骼导出***************
Bone021
[Bone021(mirrored)]
Bone023
****************下面为特效绑定*******************
Bone021 effect/shengling/510021/Bone021.prefab
[Bone021(mirrored)] effect/shengling/510021/Bone021mirrored.prefab
Bone023 effect/shengling/510021/Bone023.prefab
