%YAML 1.1
%TAG !u! tag:unity3d.com,2011:
--- !u!128 &12800000
Font:
  m_ObjectHideFlags: 0
  m_PrefabParentObject: {fileID: 0}
  m_PrefabInternal: {fileID: 0}
  m_Name: lucky
  serializedVersion: 5
  m_LineSpacing: 0.1
  m_DefaultMaterial: {fileID: 2100000, guid: 36f2c1fdd267572429fb709c2e05122a, type: 2}
  m_FontSize: 0
  m_Texture: {fileID: 0}
  m_AsciiStartOffset: 0
  m_Tracking: 1
  m_CharacterSpacing: 0
  m_CharacterPadding: 1
  m_ConvertCase: 0
  m_CharacterRects:
  - serializedVersion: 2
    index: 46
    uv:
      serializedVersion: 2
      x: 0
      y: 0.421875
      width: 0.078125
      height: -0.28125
    vert:
      serializedVersion: 2
      x: 0
      y: -36
      width: 10
      height: 36
    advance: 10
    flipped: 0
  - serializedVersion: 2
    index: 48
    uv:
      serializedVersion: 2
      x: 0.8359375
      y: 1
      width: 0.15625
      height: -0.28125
    vert:
      serializedVersion: 2
      x: 0
      y: -36
      width: 20
      height: 36
    advance: 20
    flipped: 0
  - serializedVersion: 2
    index: 49
    uv:
      serializedVersion: 2
      x: 0.8359375
      y: 0.7109375
      width: 0.140625
      height: -0.28125
    vert:
      serializedVersion: 2
      x: 0
      y: -36
      width: 18
      height: 36
    advance: 18
    flipped: 0
  - serializedVersion: 2
    index: 50
    uv:
      serializedVersion: 2
      x: 0.34375
      y: 0.7109375
      width: 0.15625
      height: -0.28125
    vert:
      serializedVersion: 2
      x: 0
      y: -36
      width: 20
      height: 36
    advance: 20
    flipped: 0
  - serializedVersion: 2
    index: 51
    uv:
      serializedVersion: 2
      x: 0.5078125
      y: 0.7109375
      width: 0.15625
      height: -0.28125
    vert:
      serializedVersion: 2
      x: 0
      y: -36
      width: 20
      height: 36
    advance: 20
    flipped: 0
  - serializedVersion: 2
    index: 52
    uv:
      serializedVersion: 2
      x: 0.296875
      y: 1
      width: 0.171875
      height: -0.28125
    vert:
      serializedVersion: 2
      x: 0
      y: -36
      width: 22
      height: 36
    advance: 22
    flipped: 0
  - serializedVersion: 2
    index: 53
    uv:
      serializedVersion: 2
      x: 0.4765625
      y: 1
      width: 0.171875
      height: -0.28125
    vert:
      serializedVersion: 2
      x: 0
      y: -36
      width: 22
      height: 36
    advance: 22
    flipped: 0
  - serializedVersion: 2
    index: 54
    uv:
      serializedVersion: 2
      x: 0
      y: 0.7109375
      width: 0.1640625
      height: -0.28125
    vert:
      serializedVersion: 2
      x: 0
      y: -36
      width: 21
      height: 36
    advance: 21
    flipped: 0
  - serializedVersion: 2
    index: 55
    uv:
      serializedVersion: 2
      x: 0.671875
      y: 0.7109375
      width: 0.15625
      height: -0.28125
    vert:
      serializedVersion: 2
      x: 0
      y: -36
      width: 20
      height: 36
    advance: 20
    flipped: 0
  - serializedVersion: 2
    index: 56
    uv:
      serializedVersion: 2
      x: 0.171875
      y: 0.7109375
      width: 0.1640625
      height: -0.28125
    vert:
      serializedVersion: 2
      x: 0
      y: -36
      width: 21
      height: 36
    advance: 21
    flipped: 0
  - serializedVersion: 2
    index: 57
    uv:
      serializedVersion: 2
      x: 0.65625
      y: 1
      width: 0.171875
      height: -0.28125
    vert:
      serializedVersion: 2
      x: 0
      y: -36
      width: 22
      height: 36
    advance: 22
    flipped: 0
  - serializedVersion: 2
    index: 20493
    uv:
      serializedVersion: 2
      x: 0
      y: 1
      width: 0.2890625
      height: -0.28125
    vert:
      serializedVersion: 2
      x: 0
      y: -36
      width: 37
      height: 36
    advance: 37
    flipped: 0
  m_KerningValues: []
  m_PixelScale: 0.1
  m_FontData: 
  m_Ascent: 0
  m_Descent: 0
  m_DefaultStyle: 0
  m_FontNames: []
  m_FallbackFonts: []
  m_FontRenderingMode: 0
