%YAML 1.1
%TAG !u! tag:unity3d.com,2011:
--- !u!128 &12800000
Font:
  m_ObjectHideFlags: 0
  m_PrefabParentObject: {fileID: 0}
  m_PrefabInternal: {fileID: 0}
  m_Name: cureNumberHero
  serializedVersion: 5
  m_LineSpacing: 0.1
  m_DefaultMaterial: {fileID: 2100000, guid: 58f3e60ceeb2b6240a7a209d29632a10, type: 2}
  m_FontSize: 0
  m_Texture: {fileID: 0}
  m_AsciiStartOffset: 0
  m_Tracking: 1
  m_CharacterSpacing: 0
  m_CharacterPadding: 1
  m_ConvertCase: 0
  m_CharacterRects:
  - serializedVersion: 2
    index: 48
    uv:
      serializedVersion: 2
      x: 0.5859375
      y: 1
      width: 0.19921875
      height: -0.2890625
    vert:
      serializedVersion: 2
      x: 0
      y: -74
      width: 51
      height: 74
    advance: 51
    flipped: 0
  - serializedVersion: 2
    index: 49
    uv:
      serializedVersion: 2
      x: 0.3984375
      y: 0.4140625
      width: 0.15234375
      height: -0.2890625
    vert:
      serializedVersion: 2
      x: 0
      y: -74
      width: 39
      height: 74
    advance: 39
    flipped: 0
  - serializedVersion: 2
    index: 50
    uv:
      serializedVersion: 2
      x: 0.40625
      y: 0.70703125
      width: 0.1953125
      height: -0.2890625
    vert:
      serializedVersion: 2
      x: 0
      y: -74
      width: 50
      height: 74
    advance: 50
    flipped: 0
  - serializedVersion: 2
    index: 51
    uv:
      serializedVersion: 2
      x: 0.8046875
      y: 0.70703125
      width: 0.19140625
      height: -0.2890625
    vert:
      serializedVersion: 2
      x: 0
      y: -74
      width: 49
      height: 74
    advance: 49
    flipped: 0
  - serializedVersion: 2
    index: 52
    uv:
      serializedVersion: 2
      x: 0.7890625
      y: 1
      width: 0.19921875
      height: -0.2890625
    vert:
      serializedVersion: 2
      x: 0
      y: -74
      width: 51
      height: 74
    advance: 51
    flipped: 0
  - serializedVersion: 2
    index: 53
    uv:
      serializedVersion: 2
      x: 0.60546875
      y: 0.70703125
      width: 0.1953125
      height: -0.2890625
    vert:
      serializedVersion: 2
      x: 0
      y: -74
      width: 50
      height: 74
    advance: 50
    flipped: 0
  - serializedVersion: 2
    index: 54
    uv:
      serializedVersion: 2
      x: 0
      y: 0.70703125
      width: 0.19921875
      height: -0.2890625
    vert:
      serializedVersion: 2
      x: 0
      y: -74
      width: 51
      height: 74
    advance: 51
    flipped: 0
  - serializedVersion: 2
    index: 55
    uv:
      serializedVersion: 2
      x: 0
      y: 0.4140625
      width: 0.1953125
      height: -0.2890625
    vert:
      serializedVersion: 2
      x: 0
      y: -74
      width: 50
      height: 74
    advance: 50
    flipped: 0
  - serializedVersion: 2
    index: 56
    uv:
      serializedVersion: 2
      x: 0.19921875
      y: 0.4140625
      width: 0.1953125
      height: -0.2890625
    vert:
      serializedVersion: 2
      x: 0
      y: -74
      width: 50
      height: 74
    advance: 50
    flipped: 0
  - serializedVersion: 2
    index: 57
    uv:
      serializedVersion: 2
      x: 0.203125
      y: 0.70703125
      width: 0.19921875
      height: -0.2890625
    vert:
      serializedVersion: 2
      x: 0
      y: -74
      width: 51
      height: 74
    advance: 51
    flipped: 0
  - serializedVersion: 2
    index: 21560
    uv:
      serializedVersion: 2
      x: 0
      y: 1
      width: 0.2890625
      height: -0.2890625
    vert:
      serializedVersion: 2
      x: 0
      y: -74
      width: 74
      height: 74
    advance: 74
    flipped: 0
  - serializedVersion: 2
    index: 34880
    uv:
      serializedVersion: 2
      x: 0.29296875
      y: 1
      width: 0.2890625
      height: -0.2890625
    vert:
      serializedVersion: 2
      x: 0
      y: -74
      width: 74
      height: 74
    advance: 74
    flipped: 0
  m_KerningValues: []
  m_PixelScale: 0.1
  m_FontData: 
  m_Ascent: 0
  m_Descent: 0
  m_DefaultStyle: 0
  m_FontNames: []
  m_FallbackFonts: []
  m_FontRenderingMode: 0
