info face="Arial" size=32 bold=0 italic=0 charset="" unicode=1 stretchH=100 smooth=1 aa=1 padding=0,0,0,0 spacing=1,1 outline=0
common lineHeight=32 base=26 scaleW=512 scaleH=128 pages=1 packed=0 alphaChnl=1 redChnl=0 greenChnl=0 blueChnl=0
page id=0 file="bigCountDown_0.tga"
chars count=10
char id=48   x=53    y=0     width=50    height=71    xoffset=0     yoffset=0     xadvance=50    page=0  chnl=15
char id=49   x=452   y=0     width=34    height=71    xoffset=0     yoffset=0     xadvance=34    page=0  chnl=15
char id=50   x=104   y=0     width=50    height=71    xoffset=0     yoffset=0     xadvance=50    page=0  chnl=15
char id=51   x=308   y=0     width=48    height=71    xoffset=0     yoffset=0     xadvance=48    page=0  chnl=15
char id=52   x=0     y=0     width=52    height=71    xoffset=0     yoffset=0     xadvance=52    page=0  chnl=15
char id=53   x=357   y=0     width=48    height=71    xoffset=0     yoffset=0     xadvance=48    page=0  chnl=15
char id=54   x=155   y=0     width=50    height=71    xoffset=0     yoffset=0     xadvance=50    page=0  chnl=15
char id=55   x=406   y=0     width=45    height=71    xoffset=0     yoffset=0     xadvance=45    page=0  chnl=15
char id=56   x=206   y=0     width=50    height=71    xoffset=0     yoffset=0     xadvance=50    page=0  chnl=15
char id=57   x=257   y=0     width=50    height=71    xoffset=0     yoffset=0     xadvance=50    page=0  chnl=15
