0 - 40 loop stand
****************下面为额外骨骼导出***************
Bone001
Bone013
****************下面为特效绑定*******************
Bone001 effect/wing/5631529/5631529_Bone001.prefab
Bone013 effect/wing/5631529/5631529_Bone013.prefab
