%YAML 1.1
%TAG !u! tag:unity3d.com,2011:
--- !u!128 &12800000
Font:
  m_ObjectHideFlags: 0
  m_PrefabParentObject: {fileID: 0}
  m_PrefabInternal: {fileID: 0}
  m_Name: shenxuanFont
  serializedVersion: 5
  m_LineSpacing: 0.1
  m_DefaultMaterial: {fileID: 2100000, guid: 879d79fcb3345824ab539277bd6ca187, type: 2}
  m_FontSize: 0
  m_Texture: {fileID: 0}
  m_AsciiStartOffset: 0
  m_Tracking: 1
  m_CharacterSpacing: 0
  m_CharacterPadding: 1
  m_ConvertCase: 0
  m_CharacterRects:
  - serializedVersion: 2
    index: 43
    uv:
      serializedVersion: 2
      x: 0.390625
      y: 0.4296875
      width: 0.0546875
      height: -0.046875
    vert:
      serializedVersion: 2
      x: 1
      y: -2
      width: 14
      height: 12
    advance: 16
    flipped: 0
  - serializedVersion: 2
    index: 45
    uv:
      serializedVersion: 2
      x: 0.44921875
      y: 0.4296875
      width: 0.03515625
      height: -0.0078125
    vert:
      serializedVersion: 2
      x: 0
      y: 16
      width: 9
      height: 2
    advance: 9
    flipped: 0
  - serializedVersion: 2
    index: 48
    uv:
      serializedVersion: 2
      x: 0
      y: 1
      width: 0.2109375
      height: -0.28125
    vert:
      serializedVersion: 2
      x: 0
      y: -72
      width: 54
      height: 72
    advance: 54
    flipped: 0
  - serializedVersion: 2
    index: 49
    uv:
      serializedVersion: 2
      x: 0.21484375
      y: 0.4296875
      width: 0.171875
      height: -0.28125
    vert:
      serializedVersion: 2
      x: 0
      y: -72
      width: 44
      height: 72
    advance: 44
    flipped: 0
  - serializedVersion: 2
    index: 50
    uv:
      serializedVersion: 2
      x: 0.21484375
      y: 1
      width: 0.2109375
      height: -0.28125
    vert:
      serializedVersion: 2
      x: 0
      y: -72
      width: 54
      height: 72
    advance: 54
    flipped: 0
  - serializedVersion: 2
    index: 51
    uv:
      serializedVersion: 2
      x: 0.4296875
      y: 1
      width: 0.2109375
      height: -0.28125
    vert:
      serializedVersion: 2
      x: 0
      y: -72
      width: 54
      height: 72
    advance: 54
    flipped: 0
  - serializedVersion: 2
    index: 52
    uv:
      serializedVersion: 2
      x: 0.64453125
      y: 1
      width: 0.2109375
      height: -0.28125
    vert:
      serializedVersion: 2
      x: 0
      y: -72
      width: 54
      height: 72
    advance: 54
    flipped: 0
  - serializedVersion: 2
    index: 53
    uv:
      serializedVersion: 2
      x: 0
      y: 0.71484375
      width: 0.2109375
      height: -0.28125
    vert:
      serializedVersion: 2
      x: 0
      y: -72
      width: 54
      height: 72
    advance: 54
    flipped: 0
  - serializedVersion: 2
    index: 54
    uv:
      serializedVersion: 2
      x: 0.21484375
      y: 0.71484375
      width: 0.2109375
      height: -0.28125
    vert:
      serializedVersion: 2
      x: 0
      y: -72
      width: 54
      height: 72
    advance: 54
    flipped: 0
  - serializedVersion: 2
    index: 55
    uv:
      serializedVersion: 2
      x: 0.4296875
      y: 0.71484375
      width: 0.2109375
      height: -0.28125
    vert:
      serializedVersion: 2
      x: 0
      y: -72
      width: 54
      height: 72
    advance: 54
    flipped: 0
  - serializedVersion: 2
    index: 56
    uv:
      serializedVersion: 2
      x: 0.64453125
      y: 0.71484375
      width: 0.2109375
      height: -0.28125
    vert:
      serializedVersion: 2
      x: 0
      y: -72
      width: 54
      height: 72
    advance: 54
    flipped: 0
  - serializedVersion: 2
    index: 57
    uv:
      serializedVersion: 2
      x: 0
      y: 0.4296875
      width: 0.2109375
      height: -0.28125
    vert:
      serializedVersion: 2
      x: 0
      y: -72
      width: 54
      height: 72
    advance: 54
    flipped: 0
  m_KerningValues: []
  m_PixelScale: 0.1
  m_FontData: 
  m_Ascent: 0
  m_Descent: 0
  m_DefaultStyle: 0
  m_FontNames: []
  m_FallbackFonts: []
  m_FontRenderingMode: 0
