%YAML 1.1
%TAG !u! tag:unity3d.com,2011:
--- !u!21 &2100000
Material:
  serializedVersion: 6
  m_ObjectHideFlags: 0
  m_PrefabParentObject: {fileID: 0}
  m_PrefabInternal: {fileID: 0}
  m_Name: Terrain_2000
  m_Shader: {fileID: 4800000, guid: dd3d0de1fafd8064cb214f88df105f76, type: 3}
  m_ShaderKeywords: 
  m_LightmapFlags: 5
  m_EnableInstancingVariants: 0
  m_DoubleSidedGI: 0
  m_CustomRenderQueue: -1
  stringTagMap: {}
  disabledShaderPasses: []
  m_SavedProperties:
    serializedVersion: 3
    m_TexEnvs:
    - _Control:
        m_Texture: {fileID: 2800000, guid: 897a20281945f314285421864bed015e, type: 3}
        m_Scale: {x: 1, y: 1}
        m_Offset: {x: 0, y: 0}
    - _MainTex:
        m_Texture: {fileID: 0}
        m_Scale: {x: 1, y: 1}
        m_Offset: {x: 0, y: 0}
    - _Splat0:
        m_Texture: {fileID: 2800000, guid: 8d8ef2be3765d904a8e3df54d6ae1c05, type: 3}
        m_Scale: {x: 16, y: 16}
        m_Offset: {x: 0, y: 0}
    - _Splat1:
        m_Texture: {fileID: 2800000, guid: d6a7c8a58bf326543a3a8ce299917346, type: 3}
        m_Scale: {x: 17, y: 17}
        m_Offset: {x: 0, y: 0}
    - _Splat2:
        m_Texture: {fileID: 2800000, guid: c574f848831105c478bfd21224a6642c, type: 3}
        m_Scale: {x: 19, y: 19}
        m_Offset: {x: 0, y: 0}
    - _Splat3:
        m_Texture: {fileID: 0}
        m_Scale: {x: 1, y: 1}
        m_Offset: {x: 0, y: 0}
    m_Floats: []
    m_Colors: []
