%YAML 1.1
%TAG !u! tag:unity3d.com,2011:
--- !u!21 &2100000
Material:
  serializedVersion: 6
  m_ObjectHideFlags: 0
  m_PrefabParentObject: {fileID: 0}
  m_PrefabInternal: {fileID: 0}
  m_Name: material2
  m_Shader: {fileID: 4800000, guid: 509a371983af2374b828b8fba085dc73, type: 3}
  m_ShaderKeywords: _CLIPALPHA _EMISSION _LIGHT_ON
  m_LightmapFlags: 1
  m_EnableInstancingVariants: 0
  m_DoubleSidedGI: 0
  m_CustomRenderQueue: -1
  stringTagMap: {}
  disabledShaderPasses: []
  m_SavedProperties:
    serializedVersion: 3
    m_TexEnvs:
    - <noninit>:
        m_Texture: {fileID: 0}
        m_Scale: {x: 1, y: 1}
        m_Offset: {x: 0, y: 0}
    - _LightTex:
        m_Texture: {fileID: 2800000, guid: 92422113356d36b4c9fa6c5287c1398f, type: 3}
        m_Scale: {x: 1, y: 1}
        m_Offset: {x: 0, y: 0}
    - _MainTex:
        m_Texture: {fileID: 2800000, guid: 4688c41dd71e5114f8eb2032486c1355, type: 3}
        m_Scale: {x: 1, y: 1}
        m_Offset: {x: 0, y: 0}
    - _MaskTex:
        m_Texture: {fileID: 0}
        m_Scale: {x: 1, y: 1}
        m_Offset: {x: 0, y: 0}
    - _NoiseTex:
        m_Texture: {fileID: 0}
        m_Scale: {x: 1, y: 1}
        m_Offset: {x: 0, y: 0}
    m_Floats:
    - <noninit>: 0
    - _Alpha: 0.5
    - _Cutoff: 0.5
    - _CutoffValue: 0.5
    - _InvFade: 1
    - _LightScale: 2
    - _Scroll2X: 1
    - _Scroll2Y: 0
    m_Colors:
    - <noninit>: {r: 0, g: 1.9209515e-34, b: 0, a: 1.9209442e-34}
    - _Color: {r: 1, g: 1, b: 1, a: 1}
    - _HurtColor: {r: 0, g: 0, b: 0, a: 0}
    - _RGBOffset: {r: 0.61, g: 0.5, b: 0, a: 0}
    - _RimColor: {r: 0, g: 0, b: 0, a: 0}
    - _TintColor: {r: 1, g: 0.8617647, b: 0.6544118, a: 0.059}
