[
    {
        "gameid": 1,
        "plat": 0,
        "projectName": "风月/斗罗大陆内",
        "path": "fengyueios/zszl",
        "url": "http://192.168.8.75/mgameres/douluo_develop/",
        "urlTest": "http://192.168.8.75/mgameres/douluo_develop/",
        "provisioningFileName": "renyu_Dev",
        "provisioningFileTestName": "renyu_Dev",
        "certTest": "fygameNewDev",
        "cert": "fygameNewDev",
        "certPassword": "123456",
        "NumberVersion": "1.0",
        "defines": "DEVELOP.TESTUIN.OPEN_OUTPUTPANEL"
    },
    {
        "gameid": 3,
        "plat": 0,
        "projectName": "风月/斗罗大陆外",
        "path": "fengyueios/zszl",
        "url": "http://111.230.166.121/publish/",
        "urlTest": "http://111.230.166.121/publish/",
        "provisioningFileName": "renyu_Dev",
        "provisioningFileTestName": "renyu_Dev",
        "certTest": "fygameNewDev",
        "cert": "fygameNewDev",
        "certPassword": "123456",
        "NumberVersion": "1.0",
        "defines": "DEVELOP.TESTUIN.OPEN_OUTPUTPANEL"
    },
    {
        "gameid": 1000,
        "plat": 1,
        "projectName": "斗罗/斗罗大陆之史莱克归来",
        "path": "douluoios/slkgl_dldl",
        "url": "http://dldlgamecdn-1252720922.cos.ap-guangzhou.myqcloud.com/dldl/",
        "urlTest": "http://dldlgamecdn-1252720922.cos.ap-guangzhou.myqcloud.com/dldl/",
        "provisioningFileName": "dis",
        "provisioningFileTestName": "dev",
        "certTest": "dev",
        "cert": "dis",
        "certPassword": "190611",
        "NumberVersion": "2.0"
    },
    {
        "gameid": 2000,
        "plat": 2,
        "projectName": "中南值尚/斗罗觉醒",
        "path": "douluoios/fyziyou_dldl",
        "url": "http://dldlcdn.8ttoo.com/dldl/",
        "urlTest": "http://dldlcdn.8ttoo.com/dldl/",
        "provisioningFileName": "dis",
        "provisioningFileTestName": "dev",
        "certTest": "dev",
        "cert": "dis",
        "certPassword": "",
        "NumberVersion": "1.0"
    },
    {
        "gameid": 2001,
        "plat": 2,
        "projectName": "中南值尚/斗罗武魂",
        "path": "douluoios/fyziyou_dldl2",
        "url": "http://dldlcdn.8ttoo.com/dldl/",
        "urlTest": "http://dldlcdn.8ttoo.com/dldl/",
        "provisioningFileName": "dis",
        "provisioningFileTestName": "dev",
        "certTest": "dev",
        "cert": "dis",
        "certPassword": "",
        "NumberVersion": "1.0"
    },
    {
        "gameid": 2002,
        "plat": 2,
        "projectName": "中南值尚/终极斗罗",
        "path": "douluoios/fyziyou_dldl3",
        "url": "http://dldlcdn.8ttoo.com/dldl/",
        "urlTest": "http://dldlcdn.8ttoo.com/dldl/",
        "provisioningFileName": "dis",
        "provisioningFileTestName": "dev",
        "certTest": "dev",
        "cert": "dis",
        "certPassword": "",
        "NumberVersion": "2.0"
    }
]