%YAML 1.1
%TAG !u! tag:unity3d.com,2011:
--- !u!21 &2100000
Material:
  serializedVersion: 6
  m_ObjectHideFlags: 0
  m_PrefabParentObject: {fileID: 0}
  m_PrefabInternal: {fileID: 0}
  m_Name: Material_yan03
  m_Shader: {fileID: 4800000, guid: ca0bd4ff402b1d3428ae78e28630533f, type: 3}
  m_ShaderKeywords: _CUTMASK_ON _FLOW_ON _MASK_ON
  m_LightmapFlags: 4
  m_EnableInstancingVariants: 0
  m_DoubleSidedGI: 0
  m_CustomRenderQueue: 3001
  stringTagMap: {}
  disabledShaderPasses: []
  m_SavedProperties:
    serializedVersion: 3
    m_TexEnvs:
    - _CutMaskTex:
        m_Texture: {fileID: 0}
        m_Scale: {x: 1, y: 1}
        m_Offset: {x: 0, y: 0}
    - _FlowTex:
        m_Texture: {fileID: 2800000, guid: f4795d2991b9c3342b2a7e94ccd9660d, type: 3}
        m_Scale: {x: 1, y: 1}
        m_Offset: {x: 0, y: 0}
    - _MainTex:
        m_Texture: {fileID: 2800000, guid: e116f71b6b554d3459ed654c438f4587, type: 3}
        m_Scale: {x: -1, y: 1}
        m_Offset: {x: 1, y: 0}
    - _MaskTex:
        m_Texture: {fileID: 2800000, guid: fddbc2c91cb2ff741af99cf7024fb705, type: 3}
        m_Scale: {x: 1, y: 1}
        m_Offset: {x: 0, y: 0}
    m_Floats:
    - _Brightness: 1
    - _CutMaskRotate: 0
    - _CutMaskValue: 1.1
    - _FlowRotate: 0
    - _LuminosityAmount: 0
    - _MaskRotate: 0
    - _Rotate: 120
    m_Colors:
    - _Color: {r: 1, g: 1, b: 1, a: 0.179}
    - _FlowUVParam: {r: 0, g: 0, b: 0.5, a: 1}
    - _MaskUVParam: {r: 0, g: 0, b: 1, a: 1}
    - _UVParam: {r: 0, g: 0, b: 1, a: 1}
    - _UVTile: {r: 0, g: 0, b: 1, a: 1}
