info face="Arial" size=32 bold=0 italic=0 charset="" unicode=1 stretchH=100 smooth=1 aa=1 padding=0,0,0,0 spacing=1,1 outline=0
common lineHeight=32 base=26 scaleW=128 scaleH=128 pages=1 packed=0 alphaChnl=1 redChnl=0 greenChnl=0 blueChnl=0
page id=0 file="fuhunFight_0.tga"
chars count=11
char id=48   x=0     y=0     width=16    height=25    xoffset=0     yoffset=0     xadvance=16    page=0  chnl=15
char id=49   x=0     y=26    width=14    height=25    xoffset=0     yoffset=0     xadvance=14    page=0  chnl=15
char id=50   x=17    y=0     width=16    height=25    xoffset=0     yoffset=0     xadvance=16    page=0  chnl=15
char id=51   x=34    y=0     width=16    height=25    xoffset=0     yoffset=0     xadvance=16    page=0  chnl=15
char id=52   x=51    y=0     width=16    height=25    xoffset=0     yoffset=0     xadvance=16    page=0  chnl=15
char id=53   x=15    y=26    width=14    height=25    xoffset=0     yoffset=0     xadvance=14    page=0  chnl=15
char id=54   x=68    y=0     width=16    height=25    xoffset=0     yoffset=0     xadvance=16    page=0  chnl=15
char id=55   x=30    y=26    width=14    height=25    xoffset=0     yoffset=0     xadvance=14    page=0  chnl=15
char id=56   x=85    y=0     width=15    height=25    xoffset=0     yoffset=0     xadvance=15    page=0  chnl=15
char id=57   x=101   y=0     width=15    height=25    xoffset=0     yoffset=0     xadvance=15    page=0  chnl=15
char id=58   x=45    y=26    width=4     height=15    xoffset=2     yoffset=11    xadvance=8     page=0  chnl=15
