****************重定义 模型位置 蒙皮筛选(逗号分割) 材质球位置*************************
model/shengqi/shenshi [5257102] model/shengqi/5257102
****************下面为额外骨骼导出***************
5257102
****************下面为特效绑定*******************
5257102 effect/shengqi/5257102_1.prefab
