%YAML 1.1
%TAG !u! tag:unity3d.com,2011:
--- !u!21 &2100000
Material:
  serializedVersion: 6
  m_ObjectHideFlags: 0
  m_PrefabParentObject: {fileID: 0}
  m_PrefabInternal: {fileID: 0}
  m_Name: Terrain_4600
  m_Shader: {fileID: 4800000, guid: dd3d0de1fafd8064cb214f88df105f76, type: 3}
  m_ShaderKeywords: 
  m_LightmapFlags: 4
  m_EnableInstancingVariants: 0
  m_DoubleSidedGI: 0
  m_CustomRenderQueue: -1
  stringTagMap: {}
  disabledShaderPasses: []
  m_SavedProperties:
    serializedVersion: 3
    m_TexEnvs:
    - _Control:
        m_Texture: {fileID: 2800000, guid: 1e66d8524f2876c4cae11b8d86bf15a0, type: 3}
        m_Scale: {x: 1, y: 1}
        m_Offset: {x: 0, y: 0}
    - _MainTex:
        m_Texture: {fileID: 0}
        m_Scale: {x: 1, y: 1}
        m_Offset: {x: 0, y: 0}
    - _Splat0:
        m_Texture: {fileID: 2800000, guid: d92abd370cc5ade4e8429ce31d4fa47a, type: 3}
        m_Scale: {x: 16, y: 16}
        m_Offset: {x: 0, y: 0}
    - _Splat1:
        m_Texture: {fileID: 2800000, guid: 492a97fe8937cf2418bb6664881d5be8, type: 3}
        m_Scale: {x: 18, y: 18}
        m_Offset: {x: 0, y: 0}
    - _Splat2:
        m_Texture: {fileID: 2800000, guid: da5ed1e07db724a40ae95a17d13d3f7f, type: 3}
        m_Scale: {x: 18, y: 18}
        m_Offset: {x: 0, y: 0}
    - _Splat3:
        m_Texture: {fileID: 0}
        m_Scale: {x: 1, y: 1}
        m_Offset: {x: 0, y: 0}
    m_Floats: []
    m_Colors: []
