%YAML 1.1
%TAG !u! tag:unity3d.com,2011:
--- !u!21 &2100000
Material:
  serializedVersion: 6
  m_ObjectHideFlags: 0
  m_PrefabParentObject: {fileID: 0}
  m_PrefabInternal: {fileID: 0}
  m_Name: fire020_3x3
  m_Shader: {fileID: 4800000, guid: e9b9bd05d950bc34bae33a2990e0ce42, type: 3}
  m_ShaderKeywords: Dissolve_Off Distortion_Off Sphere_Off VertexColor_On
  m_LightmapFlags: 5
  m_EnableInstancingVariants: 0
  m_DoubleSidedGI: 0
  m_CustomRenderQueue: -1
  stringTagMap: {}
  disabledShaderPasses: []
  m_SavedProperties:
    serializedVersion: 3
    m_TexEnvs:
    - _AlphaTex:
        m_Texture: {fileID: 0}
        m_Scale: {x: 1, y: 1}
        m_Offset: {x: 0, y: 0}
    - _DissolveTexture:
        m_Texture: {fileID: 0}
        m_Scale: {x: 1, y: 1}
        m_Offset: {x: 0, y: 0}
    - _DistortionTexture:
        m_Texture: {fileID: 0}
        m_Scale: {x: 1, y: 1}
        m_Offset: {x: 0, y: 0}
    - _MainTex:
        m_Texture: {fileID: 2800000, guid: 3788259e8d2dad146a5b88b569e1f0ff, type: 3}
        m_Scale: {x: 1, y: 1}
        m_Offset: {x: 0, y: 0}
    - _SphereMaskTex:
        m_Texture: {fileID: 0}
        m_Scale: {x: 1, y: 1}
        m_Offset: {x: 0, y: 0}
    - _SphereTex:
        m_Texture: {fileID: 0}
        m_Scale: {x: 1, y: 1}
        m_Offset: {x: 0, y: 0}
    m_Floats:
    - _AlphaRotate: 0
    - _ColorMultiplier: 2.5
    - _CullMode: 0
    - _Dissolve: 0
    - _DissolveBlend: 0
    - _DstFactor: 1
    - _FogDensity: 0
    - _MaxX: 10
    - _MaxY: 10
    - _MinX: -10
    - _MinY: -10
    - _PushSize: 0
    - _Rotate: 0
    - _SrcFactor: 5
    - _ZTestMode: 4
    - _ZWrite: 0
    m_Colors:
    - _DistortionArgs: {r: 0, g: 0, b: 0.05, a: 0}
    - _MainColor: {r: 1, g: 1, b: 1, a: 1}
