%YAML 1.1
%TAG !u! tag:unity3d.com,2011:
--- !u!21 &2100000
Material:
  serializedVersion: 6
  m_ObjectHideFlags: 0
  m_PrefabParentObject: {fileID: 0}
  m_PrefabInternal: {fileID: 0}
  m_Name: qiangshou_jineng01_01
  m_Shader: {fileID: 4800000, guid: 6c61da88a4d6e3c46b82da0f2a52cdc4, type: 3}
  m_ShaderKeywords: Dissolve_On Distortion_Off Sphere_Off VertexColor_On
  m_LightmapFlags: 5
  m_EnableInstancingVariants: 0
  m_DoubleSidedGI: 0
  m_CustomRenderQueue: 3010
  stringTagMap: {}
  disabledShaderPasses: []
  m_SavedProperties:
    serializedVersion: 3
    m_TexEnvs:
    - _AlphaTex:
        m_Texture: {fileID: 0}
        m_Scale: {x: 1, y: 1}
        m_Offset: {x: 0, y: 0}
    - _DissolveTexture:
        m_Texture: {fileID: 2800000, guid: be17198600be7cb4998ff15d696723c6, type: 3}
        m_Scale: {x: 0.2, y: 1}
        m_Offset: {x: 0, y: 0}
    - _DistortionTexture:
        m_Texture: {fileID: 0}
        m_Scale: {x: 1, y: 1}
        m_Offset: {x: 0, y: 0}
    - _MainTex:
        m_Texture: {fileID: 2800000, guid: f09b0c33cd2685b43bd17c4bcd90d110, type: 3}
        m_Scale: {x: 1, y: 1}
        m_Offset: {x: 0, y: 0}
    - _SphereMaskTex:
        m_Texture: {fileID: 0}
        m_Scale: {x: 1, y: 1}
        m_Offset: {x: 0, y: 0}
    - _SphereTex:
        m_Texture: {fileID: 0}
        m_Scale: {x: 1, y: 1}
        m_Offset: {x: 0, y: 0}
    m_Floats:
    - _AlphaRotate: 0
    - _ColorMultiplier: 1.5
    - _CullMode: 0
    - _Dissolve: 0.148
    - _DissolveBlend: 0
    - _DstFactor: 10
    - _FogDensity: 0
    - _InvFade: 1
    - _MaxX: 10
    - _MaxY: 10
    - _MinX: -10
    - _MinY: -10
    - _PushSize: 0
    - _Rotate: 0
    - _SrcFactor: 5
    - _ZTestMode: 4
    - _ZWrite: 0
    m_Colors:
    - _Color: {r: 1, g: 1, b: 1, a: 1}
    - _DistortionArgs: {r: 0, g: 0, b: 0.05, a: 0}
    - _MainColor: {r: 1, g: 1, b: 1, a: 0.722}
    - _TintColor: {r: 0.10261679, g: 0.3211879, b: 0.53676474, a: 0.5019608}
