****************重定义 模型位置 蒙皮筛选(逗号分割) 材质球位置*************************
model/shengqi/shenshi [5257100] model/shengqi/5257100
****************下面为额外骨骼导出***************
5257100
****************下面为特效绑定*******************
5257100 effect/shengqi/5257100_2.prefab

