****************重定义 模型位置 蒙皮筛选(逗号分割) 材质球位置*************************
model/shengqi/shenshi [1055033] model/shengqi/1055033
****************下面为额外骨骼导出***************
1055033
****************下面为特效绑定*******************
1055033 effect/shengqi/1055033_1.prefab


