10 - 50 loop stand
60 - 84 loop move
****************下面为额外骨骼导出***************
ride
Bone001
Bone040
****************下面为特效绑定*******************
Bone001 effect/ride/540063/540063_Bone001.prefab
Bone040 effect/ride/540063/540063_Bone040.prefab


