10 - 50 loop move
60 - 100 loop stand
****************下面为额外骨骼导出***************
Bone002
Bone007
Bone014
Bone019
****************下面为特效绑定*******************
Bone002 effect/shengling/510007/510007_Bone002.prefab
Bone014 effect/shengling/510007/510007_Bone014.prefab
Bone019 effect/shengling/510007/510007_Bone019.prefab