0 - 50 loop stand
130 - 150 loop move
****************下面为额外骨骼导出***************
ride
[Bip01 L Thigh]
[Bip01 L UpperArm]
[Bip01 R Thigh]
[Bip01 R UpperArm]
[Bip01 Spine]
[Bip01 Tail1]
****************下面为特效绑定*******************
