%YAML 1.1
%TAG !u! tag:unity3d.com,2011:
--- !u!128 &12800000
Font:
  m_ObjectHideFlags: 0
  m_PrefabParentObject: {fileID: 0}
  m_PrefabInternal: {fileID: 0}
  m_Name: heroScore
  serializedVersion: 5
  m_LineSpacing: 0.1
  m_DefaultMaterial: {fileID: 2100000, guid: 33059d852b433074b9e0e2b63cd5de31, type: 2}
  m_FontSize: 0
  m_Texture: {fileID: 0}
  m_AsciiStartOffset: 0
  m_Tracking: 1
  m_CharacterSpacing: 0
  m_CharacterPadding: 1
  m_ConvertCase: 0
  m_CharacterRects:
  - serializedVersion: 2
    index: 48
    uv:
      serializedVersion: 2
      x: 0.5703125
      y: 1
      width: 0.171875
      height: -0.46875
    vert:
      serializedVersion: 2
      x: 0
      y: -30
      width: 22
      height: 30
    advance: 22
    flipped: 0
  - serializedVersion: 2
    index: 49
    uv:
      serializedVersion: 2
      x: 0.7109375
      y: 0.515625
      width: 0.140625
      height: -0.46875
    vert:
      serializedVersion: 2
      x: 0
      y: -30
      width: 18
      height: 30
    advance: 18
    flipped: 0
  - serializedVersion: 2
    index: 50
    uv:
      serializedVersion: 2
      x: 0
      y: 1
      width: 0.1875
      height: -0.46875
    vert:
      serializedVersion: 2
      x: 0
      y: -30
      width: 24
      height: 30
    advance: 24
    flipped: 0
  - serializedVersion: 2
    index: 51
    uv:
      serializedVersion: 2
      x: 0.1953125
      y: 1
      width: 0.1796875
      height: -0.46875
    vert:
      serializedVersion: 2
      x: 0
      y: -30
      width: 23
      height: 30
    advance: 23
    flipped: 0
  - serializedVersion: 2
    index: 52
    uv:
      serializedVersion: 2
      x: 0.5390625
      y: 0.515625
      width: 0.1640625
      height: -0.46875
    vert:
      serializedVersion: 2
      x: 0
      y: -30
      width: 21
      height: 30
    advance: 21
    flipped: 0
  - serializedVersion: 2
    index: 53
    uv:
      serializedVersion: 2
      x: 0.75
      y: 1
      width: 0.171875
      height: -0.46875
    vert:
      serializedVersion: 2
      x: 0
      y: -30
      width: 22
      height: 30
    advance: 22
    flipped: 0
  - serializedVersion: 2
    index: 54
    uv:
      serializedVersion: 2
      x: 0
      y: 0.515625
      width: 0.171875
      height: -0.46875
    vert:
      serializedVersion: 2
      x: 0
      y: -30
      width: 22
      height: 30
    advance: 22
    flipped: 0
  - serializedVersion: 2
    index: 55
    uv:
      serializedVersion: 2
      x: 0.3828125
      y: 1
      width: 0.1796875
      height: -0.46875
    vert:
      serializedVersion: 2
      x: 0
      y: -30
      width: 23
      height: 30
    advance: 23
    flipped: 0
  - serializedVersion: 2
    index: 56
    uv:
      serializedVersion: 2
      x: 0.1796875
      y: 0.515625
      width: 0.171875
      height: -0.46875
    vert:
      serializedVersion: 2
      x: 0
      y: -30
      width: 22
      height: 30
    advance: 22
    flipped: 0
  - serializedVersion: 2
    index: 57
    uv:
      serializedVersion: 2
      x: 0.359375
      y: 0.515625
      width: 0.171875
      height: -0.46875
    vert:
      serializedVersion: 2
      x: 0
      y: -30
      width: 22
      height: 30
    advance: 22
    flipped: 0
  m_KerningValues: []
  m_PixelScale: 0.1
  m_FontData: 
  m_Ascent: 0
  m_Descent: 0
  m_DefaultStyle: 0
  m_FontNames: []
  m_FallbackFonts: []
  m_FontRenderingMode: 0
