0 - 50 loop stand
60 - 82 loop move
****************下面为额外骨骼导出***************
ride
[Bip01 Head]
[Bip01 L Clavicle]
[Bip01 R Clavicle]
Bone04
****************下面为特效绑定*******************
[Bip01 Head] effect/ride/540029/Bip01_Head.prefab
[Bip01 L Clavicle] effect/ride/540029/Bip01_L_Clavicle.prefab
[Bip01 R Clavicle] effect/ride/540029/Bip01_R_Clavicle.prefab
Bone04 effect/ride/540029/Bone04.prefab
