%YAML 1.1
%TAG !u! tag:unity3d.com,2011:
--- !u!21 &2100000
Material:
  serializedVersion: 6
  m_ObjectHideFlags: 0
  m_PrefabParentObject: {fileID: 0}
  m_PrefabInternal: {fileID: 0}
  m_Name: material
  m_Shader: {fileID: 4800000, guid: bd27af05cc9e83a49b361f148edbe28b, type: 3}
  m_ShaderKeywords: _ALPHAPREMULTIPLY_ON _CLIPALPHA _EMISSION _LIGHT_ON
  m_LightmapFlags: 1
  m_CustomRenderQueue: -1
  stringTagMap: {}
  m_SavedProperties:
    serializedVersion: 2
    m_TexEnvs:
    - first:
        name: <noninit>
      second:
        m_Texture: {fileID: 0}
        m_Scale: {x: 1, y: 1}
        m_Offset: {x: 0, y: 0}
    - first:
        name: _LightTex
      second:
        m_Texture: {fileID: 2800000, guid: 92422113356d36b4c9fa6c5287c1398f, type: 3}
        m_Scale: {x: 1, y: 1}
        m_Offset: {x: 0, y: 0}
    - first:
        name: _MainTex
      second:
        m_Texture: {fileID: 2800000, guid: c3a9561d9393afb4e87abc7d5a9be305, type: 3}
        m_Scale: {x: 1, y: 1}
        m_Offset: {x: 0, y: 0}
    m_Floats:
    - first:
        name: <noninit>
      second: 0
    - first:
        name: _Cutoff
      second: 0.5
    - first:
        name: _LightScale
      second: 2
    m_Colors:
    - first:
        name: <noninit>
      second: {r: 0, g: 1.4624738e-34, b: 0, a: 1.4624665e-34}
    - first:
        name: _Color
      second: {r: 1, g: 1, b: 1, a: 1}
    - first:
        name: _HurtColor
      second: {r: 0, g: 0, b: 0, a: 0}
    - first:
        name: _RimColor
      second: {r: 0, g: 0, b: 0, a: 0}
