%YAML 1.1
%TAG !u! tag:unity3d.com,2011:
--- !u!128 &12800000
Font:
  m_ObjectHideFlags: 0
  m_PrefabParentObject: {fileID: 0}
  m_PrefabInternal: {fileID: 0}
  m_Name: heroLevel
  serializedVersion: 5
  m_LineSpacing: 0.1
  m_DefaultMaterial: {fileID: 2100000, guid: 877a6371d3d58a849b427d4e05807c0b, type: 2}
  m_FontSize: 0
  m_Texture: {fileID: 0}
  m_AsciiStartOffset: 0
  m_Tracking: 1
  m_CharacterSpacing: 0
  m_CharacterPadding: 1
  m_ConvertCase: 0
  m_CharacterRects:
  - serializedVersion: 2
    index: 48
    uv:
      serializedVersion: 2
      x: 0.4296875
      y: 1
      width: 0.1328125
      height: -0.328125
    vert:
      serializedVersion: 2
      x: 0
      y: -21
      width: 17
      height: 21
    advance: 17
    flipped: 0
  - serializedVersion: 2
    index: 49
    uv:
      serializedVersion: 2
      x: 0
      y: 1
      width: 0.140625
      height: -0.34375
    vert:
      serializedVersion: 2
      x: 0
      y: -22
      width: 18
      height: 22
    advance: 18
    flipped: 0
  - serializedVersion: 2
    index: 50
    uv:
      serializedVersion: 2
      x: 0.1484375
      y: 1
      width: 0.140625
      height: -0.34375
    vert:
      serializedVersion: 2
      x: 0
      y: -22
      width: 18
      height: 22
    advance: 18
    flipped: 0
  - serializedVersion: 2
    index: 51
    uv:
      serializedVersion: 2
      x: 0.5703125
      y: 1
      width: 0.1328125
      height: -0.328125
    vert:
      serializedVersion: 2
      x: 0
      y: -21
      width: 17
      height: 21
    advance: 17
    flipped: 0
  - serializedVersion: 2
    index: 52
    uv:
      serializedVersion: 2
      x: 0.7109375
      y: 1
      width: 0.1328125
      height: -0.328125
    vert:
      serializedVersion: 2
      x: 0
      y: -21
      width: 17
      height: 21
    advance: 17
    flipped: 0
  - serializedVersion: 2
    index: 53
    uv:
      serializedVersion: 2
      x: 0.296875
      y: 1
      width: 0.125
      height: -0.34375
    vert:
      serializedVersion: 2
      x: 0
      y: -22
      width: 16
      height: 22
    advance: 16
    flipped: 0
  - serializedVersion: 2
    index: 54
    uv:
      serializedVersion: 2
      x: 0.140625
      y: 0.640625
      width: 0.125
      height: -0.328125
    vert:
      serializedVersion: 2
      x: 0
      y: -21
      width: 16
      height: 21
    advance: 16
    flipped: 0
  - serializedVersion: 2
    index: 55
    uv:
      serializedVersion: 2
      x: 0.8515625
      y: 1
      width: 0.1328125
      height: -0.328125
    vert:
      serializedVersion: 2
      x: 0
      y: -21
      width: 17
      height: 21
    advance: 17
    flipped: 0
  - serializedVersion: 2
    index: 56
    uv:
      serializedVersion: 2
      x: 0
      y: 0.640625
      width: 0.1328125
      height: -0.328125
    vert:
      serializedVersion: 2
      x: 0
      y: -21
      width: 17
      height: 21
    advance: 17
    flipped: 0
  - serializedVersion: 2
    index: 57
    uv:
      serializedVersion: 2
      x: 0.2734375
      y: 0.640625
      width: 0.125
      height: -0.328125
    vert:
      serializedVersion: 2
      x: 0
      y: -21
      width: 16
      height: 21
    advance: 16
    flipped: 0
  m_KerningValues: []
  m_PixelScale: 0.1
  m_FontData: 
  m_Ascent: 0
  m_Descent: 0
  m_DefaultStyle: 0
  m_FontNames: []
  m_FallbackFonts: []
  m_FontRenderingMode: 0
