%YAML 1.1
%TAG !u! tag:unity3d.com,2011:
--- !u!1001 &100100000
Prefab:
  m_ObjectHideFlags: 1
  serializedVersion: 2
  m_Modification:
    m_TransformParent: {fileID: 0}
    m_Modifications: []
    m_RemovedComponents: []
  m_ParentPrefab: {fileID: 0}
  m_RootGameObject: {fileID: 1265588609403408}
  m_IsPrefabParent: 1
--- !u!1 &1265588609403408
GameObject:
  m_ObjectHideFlags: 0
  m_PrefabParentObject: {fileID: 0}
  m_PrefabInternal: {fileID: 100100000}
  serializedVersion: 5
  m_Component:
  - component: {fileID: 224786586140035030}
  - component: {fileID: 114595130529521412}
  m_Layer: 0
  m_Name: iconColorExhibitionAltas
  m_TagString: Untagged
  m_Icon: {fileID: 0}
  m_NavMeshLayer: 0
  m_StaticEditorFlags: 0
  m_IsActive: 0
--- !u!114 &114595130529521412
MonoBehaviour:
  m_ObjectHideFlags: 1
  m_PrefabParentObject: {fileID: 0}
  m_PrefabInternal: {fileID: 100100000}
  m_GameObject: {fileID: 1265588609403408}
  m_Enabled: 1
  m_EditorHideFlags: 0
  m_Script: {fileID: 11500000, guid: ae0912dc0a8f4ea4abc018df0882b8b3, type: 3}
  m_Name: 
  m_EditorClassIdentifier: 
  names:
  - 102
  - 103
  - 104
  - 105
  - 106
  - 107
  sprites:
  - {fileID: 21300000, guid: 23e2384f275ca794bb48e3943a0bef3c, type: 3}
  - {fileID: 21300000, guid: 2da0e3c40e810874eb7c3b0e108e1878, type: 3}
  - {fileID: 21300000, guid: 9ba6984e7dfa8c24393d35a34eb4f83f, type: 3}
  - {fileID: 21300000, guid: a08d89bcc1fbf164a9a107f3a7efbd30, type: 3}
  - {fileID: 21300000, guid: 1569e096cb3e2424ebe5ac32f262916b, type: 3}
  - {fileID: 21300000, guid: e239b0499a7613f47a1ebab6c4553c47, type: 3}
--- !u!224 &224786586140035030
RectTransform:
  m_ObjectHideFlags: 1
  m_PrefabParentObject: {fileID: 0}
  m_PrefabInternal: {fileID: 100100000}
  m_GameObject: {fileID: 1265588609403408}
  m_LocalRotation: {x: -0, y: -0, z: -0, w: 1}
  m_LocalPosition: {x: 0, y: 0, z: 0}
  m_LocalScale: {x: 0.99974996, y: 0.99974996, z: 0.99974996}
  m_Children: []
  m_Father: {fileID: 0}
  m_RootOrder: 0
  m_LocalEulerAnglesHint: {x: 0, y: 0, z: 0}
  m_AnchorMin: {x: 0.5, y: 0.5}
  m_AnchorMax: {x: 0.5, y: 0.5}
  m_AnchoredPosition: {x: 1114, y: -72.50004}
  m_SizeDelta: {x: 100, y: 100}
  m_Pivot: {x: 0.5, y: 0.5}
