%YAML 1.1
%TAG !u! tag:unity3d.com,2011:
--- !u!1001 &100100000
Prefab:
  m_ObjectHideFlags: 1
  serializedVersion: 2
  m_Modification:
    m_TransformParent: {fileID: 0}
    m_Modifications: []
    m_RemovedComponents: []
  m_ParentPrefab: {fileID: 0}
  m_RootGameObject: {fileID: 1478755374067628}
  m_IsPrefabParent: 1
--- !u!1 &1478755374067628
GameObject:
  m_ObjectHideFlags: 0
  m_PrefabParentObject: {fileID: 0}
  m_PrefabInternal: {fileID: 100100000}
  serializedVersion: 5
  m_Component:
  - component: {fileID: 224767036493704436}
  - component: {fileID: 114550303800255030}
  m_Layer: 0
  m_Name: iconColor
  m_TagString: Untagged
  m_Icon: {fileID: 0}
  m_NavMeshLayer: 0
  m_StaticEditorFlags: 0
  m_IsActive: 0
--- !u!114 &114550303800255030
MonoBehaviour:
  m_ObjectHideFlags: 1
  m_PrefabParentObject: {fileID: 0}
  m_PrefabInternal: {fileID: 100100000}
  m_GameObject: {fileID: 1478755374067628}
  m_Enabled: 1
  m_EditorHideFlags: 0
  m_Script: {fileID: 11500000, guid: ae0912dc0a8f4ea4abc018df0882b8b3, type: 3}
  m_Name: 
  m_EditorClassIdentifier: 
  names:
  - 102
  - 103
  - 104
  - 105
  - 106
  - 107
  - 108
  sprites:
  - {fileID: 21300000, guid: 2134da2fe1e5b704d8426a6d47e74a2a, type: 3}
  - {fileID: 21300000, guid: 1f7cc4b5d50a0364c9a1fe214e4f68ff, type: 3}
  - {fileID: 21300000, guid: e42797688ef1115458c6f8e70735fef8, type: 3}
  - {fileID: 21300000, guid: 04fefe46130af794cac7552142dddae2, type: 3}
  - {fileID: 21300000, guid: 082ca029502b97643b3260807323c49b, type: 3}
  - {fileID: 21300000, guid: 2e91aed7cc7cc404bab6b64aa09fe195, type: 3}
  - {fileID: 21300000, guid: 3edb26c9d3b1fbc4da1005dfbdd34248, type: 3}
--- !u!224 &224767036493704436
RectTransform:
  m_ObjectHideFlags: 1
  m_PrefabParentObject: {fileID: 0}
  m_PrefabInternal: {fileID: 100100000}
  m_GameObject: {fileID: 1478755374067628}
  m_LocalRotation: {x: -0, y: -0, z: -0, w: 1}
  m_LocalPosition: {x: 0, y: 0, z: 0}
  m_LocalScale: {x: 1, y: 1, z: 1}
  m_Children: []
  m_Father: {fileID: 0}
  m_RootOrder: 0
  m_LocalEulerAnglesHint: {x: 0, y: 0, z: 0}
  m_AnchorMin: {x: 0.5, y: 0.5}
  m_AnchorMax: {x: 0.5, y: 0.5}
  m_AnchoredPosition: {x: 1113.9999, y: -72.50002}
  m_SizeDelta: {x: 100, y: 100}
  m_Pivot: {x: 0.5, y: 0.5}
