%YAML 1.1
%TAG !u! tag:unity3d.com,2011:
--- !u!21 &2100000
Material:
  serializedVersion: 6
  m_ObjectHideFlags: 0
  m_PrefabParentObject: {fileID: 0}
  m_PrefabInternal: {fileID: 0}
  m_Name: S_Terrain_1000
  m_Shader: {fileID: 4800000, guid: 6c580b718ebee3f4698fc64707eb296d, type: 3}
  m_ShaderKeywords: 
  m_LightmapFlags: 4
  m_EnableInstancingVariants: 0
  m_DoubleSidedGI: 0
  m_CustomRenderQueue: -1
  stringTagMap: {}
  disabledShaderPasses: []
  m_SavedProperties:
    serializedVersion: 3
    m_TexEnvs:
    - _Control:
        m_Texture: {fileID: 2800000, guid: 9fc12602a154da742826523641654b3f, type: 3}
        m_Scale: {x: 1, y: 1}
        m_Offset: {x: 0, y: 0}
    - _MainTex:
        m_Texture: {fileID: 0}
        m_Scale: {x: 1, y: 1}
        m_Offset: {x: 0, y: 0}
    - _Splat0:
        m_Texture: {fileID: 2800000, guid: 3d913df3c1630314ea399a41a89cafe7, type: 3}
        m_Scale: {x: 25, y: 25}
        m_Offset: {x: 0, y: 0}
    - _Splat1:
        m_Texture: {fileID: 2800000, guid: fe4c9556d411d234287dbc77a2372b19, type: 3}
        m_Scale: {x: 18, y: 18}
        m_Offset: {x: 0, y: 0}
    - _Splat2:
        m_Texture: {fileID: 2800000, guid: 8176adee8d4d3364da9e8958dde2f571, type: 3}
        m_Scale: {x: 25, y: 25}
        m_Offset: {x: 0, y: 0}
    - _Splat3:
        m_Texture: {fileID: 2800000, guid: c84d0eb65585a4141b8c7f181404d75f, type: 3}
        m_Scale: {x: 18, y: 18}
        m_Offset: {x: 0, y: 0}
    m_Floats: []
    m_Colors: []
