%YAML 1.1
%TAG !u! tag:unity3d.com,2011:
--- !u!128 &12800000
Font:
  m_ObjectHideFlags: 0
  m_PrefabParentObject: {fileID: 0}
  m_PrefabInternal: {fileID: 0}
  m_Name: mainVipLv
  serializedVersion: 5
  m_AsciiStartOffset: 0
  m_Tracking: 1
  m_LineSpacing: 0.1
  m_CharacterSpacing: 0
  m_CharacterPadding: 1
  m_ConvertCase: 0
  m_DefaultMaterial: {fileID: 2100000, guid: 94df67d95d43b2c428144abe47690838, type: 2}
  m_CharacterRects:
  - serializedVersion: 2
    index: 43
    uv:
      serializedVersion: 2
      x: 0
      y: 0.8515625
      width: 0.140625
      height: -0.1328125
    vert:
      serializedVersion: 2
      x: 1
      y: -6
      width: 18
      height: 17
    advance: 20
    flipped: 0
  - serializedVersion: 2
    index: 45
    uv:
      serializedVersion: 2
      x: 0.1484375
      y: 0.8515625
      width: 0.09375
      height: -0.0234375
    vert:
      serializedVersion: 2
      x: 0
      y: 18
      width: 12
      height: 3
    advance: 12
    flipped: 0
  - serializedVersion: 2
    index: 48
    uv:
      serializedVersion: 2
      x: 0
      y: 1
      width: 0.09375
      height: -0.140625
    vert:
      serializedVersion: 2
      x: 0
      y: -18
      width: 12
      height: 18
    advance: 12
    flipped: 0
  - serializedVersion: 2
    index: 49
    uv:
      serializedVersion: 2
      x: 0.8984375
      y: 1
      width: 0.0546875
      height: -0.140625
    vert:
      serializedVersion: 2
      x: 0
      y: -18
      width: 7
      height: 18
    advance: 7
    flipped: 0
  - serializedVersion: 2
    index: 50
    uv:
      serializedVersion: 2
      x: 0.1015625
      y: 1
      width: 0.09375
      height: -0.140625
    vert:
      serializedVersion: 2
      x: 0
      y: -18
      width: 12
      height: 18
    advance: 12
    flipped: 0
  - serializedVersion: 2
    index: 51
    uv:
      serializedVersion: 2
      x: 0.7109375
      y: 1
      width: 0.0859375
      height: -0.140625
    vert:
      serializedVersion: 2
      x: 0
      y: -18
      width: 11
      height: 18
    advance: 11
    flipped: 0
  - serializedVersion: 2
    index: 52
    uv:
      serializedVersion: 2
      x: 0.203125
      y: 1
      width: 0.09375
      height: -0.140625
    vert:
      serializedVersion: 2
      x: 0
      y: -18
      width: 12
      height: 18
    advance: 12
    flipped: 0
  - serializedVersion: 2
    index: 53
    uv:
      serializedVersion: 2
      x: 0.8046875
      y: 1
      width: 0.0859375
      height: -0.140625
    vert:
      serializedVersion: 2
      x: 0
      y: -18
      width: 11
      height: 18
    advance: 11
    flipped: 0
  - serializedVersion: 2
    index: 54
    uv:
      serializedVersion: 2
      x: 0.3046875
      y: 1
      width: 0.09375
      height: -0.140625
    vert:
      serializedVersion: 2
      x: 0
      y: -18
      width: 12
      height: 18
    advance: 12
    flipped: 0
  - serializedVersion: 2
    index: 55
    uv:
      serializedVersion: 2
      x: 0.40625
      y: 1
      width: 0.09375
      height: -0.140625
    vert:
      serializedVersion: 2
      x: 0
      y: -18
      width: 12
      height: 18
    advance: 12
    flipped: 0
  - serializedVersion: 2
    index: 56
    uv:
      serializedVersion: 2
      x: 0.5078125
      y: 1
      width: 0.09375
      height: -0.140625
    vert:
      serializedVersion: 2
      x: 0
      y: -18
      width: 12
      height: 18
    advance: 12
    flipped: 0
  - serializedVersion: 2
    index: 57
    uv:
      serializedVersion: 2
      x: 0.609375
      y: 1
      width: 0.09375
      height: -0.140625
    vert:
      serializedVersion: 2
      x: 0
      y: -18
      width: 12
      height: 18
    advance: 12
    flipped: 0
  m_Texture: {fileID: 0}
  m_KerningValues: []
  m_PixelScale: 0.1
  m_FontData: 
  m_FontSize: 0
  m_Ascent: 0
  m_Descent: 0
  m_DefaultStyle: 0
  m_FontNames: []
  m_FallbackFonts: []
  m_FontRenderingMode: 0
