0 - 40 loop stand
****************下面为额外骨骼导出***************
0000
Bone09
Dummy01
****************下面为特效绑定*******************
0000 effect/wing/1310007/000.prefab
Bone09 effect/wing/1310007/Bone09.prefab
Dummy01 effect/wing/1310007/Dummy01.prefab
