%YAML 1.1
%TAG !u! tag:unity3d.com,2011:
--- !u!21 &2100000
Material:
  serializedVersion: 6
  m_ObjectHideFlags: 0
  m_PrefabParentObject: {fileID: 0}
  m_PrefabInternal: {fileID: 0}
  m_Name: material_2
  m_Shader: {fileID: 4800000, guid: ca0bd4ff402b1d3428ae78e28630533f, type: 3}
  m_ShaderKeywords: _CLIPALPHA _FLOW_ON _LIGHT_ON _MASK_ON
  m_LightmapFlags: 0
  m_EnableInstancingVariants: 0
  m_DoubleSidedGI: 0
  m_CustomRenderQueue: 3002
  stringTagMap: {}
  disabledShaderPasses: []
  m_SavedProperties:
    serializedVersion: 3
    m_TexEnvs:
    - _BumpMap:
        m_Texture: {fileID: 0}
        m_Scale: {x: 1, y: 1}
        m_Offset: {x: 0, y: 0}
    - _CutMaskTex:
        m_Texture: {fileID: 0}
        m_Scale: {x: 1, y: 1}
        m_Offset: {x: 0, y: 0}
    - _DetailAlbedoMap:
        m_Texture: {fileID: 0}
        m_Scale: {x: 1, y: 1}
        m_Offset: {x: 0, y: 0}
    - _DetailMask:
        m_Texture: {fileID: 0}
        m_Scale: {x: 1, y: 1}
        m_Offset: {x: 0, y: 0}
    - _DetailNormalMap:
        m_Texture: {fileID: 0}
        m_Scale: {x: 1, y: 1}
        m_Offset: {x: 0, y: 0}
    - _DiffuseMap:
        m_Texture: {fileID: 2800000, guid: 2e4b2c9dce8f63746a545a6a83c20383, type: 3}
        m_Scale: {x: 1, y: 1}
        m_Offset: {x: 0, y: 0}
    - _EffectMap:
        m_Texture: {fileID: 2800000, guid: 318156c38fef3844990c678555f03614, type: 3}
        m_Scale: {x: 1, y: 1}
        m_Offset: {x: 0, y: 0}
    - _EmissionMap:
        m_Texture: {fileID: 0}
        m_Scale: {x: 1, y: 1}
        m_Offset: {x: 0, y: 0}
    - _FlowTex:
        m_Texture: {fileID: 2800000, guid: e56e3fd313c41574fbbab7526bf58c6e, type: 3}
        m_Scale: {x: 1, y: 1}
        m_Offset: {x: 0, y: 0}
    - _LightTex:
        m_Texture: {fileID: 2800000, guid: 92422113356d36b4c9fa6c5287c1398f, type: 3}
        m_Scale: {x: 1, y: 1}
        m_Offset: {x: 0, y: 0}
    - _MainTex:
        m_Texture: {fileID: 2800000, guid: 697b9e0f033f28f44839e31562bc3b7f, type: 3}
        m_Scale: {x: 1, y: 1}
        m_Offset: {x: 0, y: 0}
    - _MaskTex:
        m_Texture: {fileID: 2800000, guid: 941b1543914995d4ba4e76f8004ea601, type: 3}
        m_Scale: {x: 1, y: 1}
        m_Offset: {x: 0, y: 0}
    - _MetallicGlossMap:
        m_Texture: {fileID: 0}
        m_Scale: {x: 1, y: 1}
        m_Offset: {x: 0, y: 0}
    - _NoiseTex:
        m_Texture: {fileID: 0}
        m_Scale: {x: 1, y: 1}
        m_Offset: {x: 0, y: 0}
    - _OcclusionMap:
        m_Texture: {fileID: 0}
        m_Scale: {x: 1, y: 1}
        m_Offset: {x: 0, y: 0}
    - _ParallaxMap:
        m_Texture: {fileID: 0}
        m_Scale: {x: 1, y: 1}
        m_Offset: {x: 0, y: 0}
    - _node_780:
        m_Texture: {fileID: 2800000, guid: 2e4b2c9dce8f63746a545a6a83c20383, type: 3}
        m_Scale: {x: 1, y: 1}
        m_Offset: {x: 0, y: 0}
    - _node_9160:
        m_Texture: {fileID: 2800000, guid: 5543d7827400ec0438027d5d22e4f0e0, type: 3}
        m_Scale: {x: 2, y: 2}
        m_Offset: {x: 0, y: 0}
    m_Floats:
    - PixelSnap: 0
    - _AlphaPower: 2
    - _Brightness: 2
    - _BumpScale: 1
    - _CutMaskRotate: 0
    - _CutMaskValue: 1.1
    - _Cutoff: 0.5
    - _CutoffValue: 0.5
    - _DetailNormalMapScale: 1
    - _DstBlend: 0
    - _FlowRotate: 0
    - _GlossMapScale: 1
    - _Glossiness: 0.5
    - _GlossyReflections: 1
    - _LightScale: 2
    - _LuminosityAmount: 0
    - _MaskRotate: 0
    - _Metallic: 0
    - _Mode: 0
    - _OcclusionStrength: 1
    - _Parallax: 0.02
    - _RimPower: 5
    - _Rotate: 0
    - _Scroll2X: 1
    - _Scroll2Y: 0
    - _SmoothnessTextureChannel: 0
    - _SpecularHighlights: 1
    - _SrcBlend: 1
    - _Stencil: 0
    - _StencilComp: 8
    - _StencilOp: 0
    - _StencilOpFail: 0
    - _StencilOpZFail: 0
    - _StencilReadMask: 255
    - _StencilWriteMask: 255
    - _UVSec: 0
    - _ZWrite: 1
    - _node_6266: 4
    - _node_6266_copy: 5
    - _node_7415: 53.57
    m_Colors:
    - _Color: {r: 1, g: 0.3103448, b: 0, a: 1}
    - _Color_copy: {r: 1, g: 0.68235296, b: 0, a: 1}
    - _EmissionColor: {r: 0, g: 0, b: 0, a: 1}
    - _FlowUVParam: {r: 0, g: 0, b: 0, a: 1}
    - _MaskUVParam: {r: 0, g: 0, b: 1, a: 1}
    - _RGBOffset: {r: 0, g: 0, b: 0, a: 0}
    - _RimColor: {r: 2, g: 0.766, b: 0.07352936, a: 1}
    - _UVParam: {r: 0, g: 0, b: 1, a: 1}
    - _UVTile: {r: 0, g: 0, b: 1, a: 1}
