85-145 loop stand
264-304 loop stand_fight
155-220 loop idle
230-254 loop move
314-335 noloop attack1
350-380 noloop attack2
85-145 noloop upgrade
480-556  noloop show
410-467  noloop dead
****************下面为额外骨骼导出***************
weapon