%YAML 1.1
%TAG !u! tag:unity3d.com,2011:
--- !u!128 &12800000
Font:
  m_ObjectHideFlags: 0
  m_PrefabParentObject: {fileID: 0}
  m_PrefabInternal: {fileID: 0}
  m_Name: baoji
  serializedVersion: 5
  m_LineSpacing: 0.1
  m_DefaultMaterial: {fileID: 2100000, guid: a5d8fe1627e9f914b8dc2e2962fffae3, type: 2}
  m_FontSize: 0
  m_Texture: {fileID: 0}
  m_AsciiStartOffset: 0
  m_Tracking: 1
  m_CharacterSpacing: 0
  m_CharacterPadding: 1
  m_ConvertCase: 0
  m_CharacterRects:
  - serializedVersion: 2
    index: 46
    uv:
      serializedVersion: 2
      x: 0
      y: 0.5488281
      width: 0.1171875
      height: -0.1484375
    vert:
      serializedVersion: 2
      x: 0
      y: -76
      width: 30
      height: 76
    advance: 30
    flipped: 0
  - serializedVersion: 2
    index: 48
    uv:
      serializedVersion: 2
      x: 0.62109375
      y: 0.8496094
      width: 0.1953125
      height: -0.1484375
    vert:
      serializedVersion: 2
      x: 0
      y: -76
      width: 50
      height: 76
    advance: 50
    flipped: 0
  - serializedVersion: 2
    index: 49
    uv:
      serializedVersion: 2
      x: 0.8203125
      y: 0.8496094
      width: 0.171875
      height: -0.1484375
    vert:
      serializedVersion: 2
      x: 0
      y: -76
      width: 44
      height: 76
    advance: 44
    flipped: 0
  - serializedVersion: 2
    index: 50
    uv:
      serializedVersion: 2
      x: 0.7734375
      y: 0.69921875
      width: 0.18359375
      height: -0.1484375
    vert:
      serializedVersion: 2
      x: 0
      y: -76
      width: 47
      height: 76
    advance: 47
    flipped: 0
  - serializedVersion: 2
    index: 51
    uv:
      serializedVersion: 2
      x: 0.19921875
      y: 0.69921875
      width: 0.1875
      height: -0.1484375
    vert:
      serializedVersion: 2
      x: 0
      y: -76
      width: 48
      height: 76
    advance: 48
    flipped: 0
  - serializedVersion: 2
    index: 52
    uv:
      serializedVersion: 2
      x: 0
      y: 0.8496094
      width: 0.203125
      height: -0.1484375
    vert:
      serializedVersion: 2
      x: 0
      y: -76
      width: 52
      height: 76
    advance: 52
    flipped: 0
  - serializedVersion: 2
    index: 53
    uv:
      serializedVersion: 2
      x: 0.20703125
      y: 0.8496094
      width: 0.203125
      height: -0.1484375
    vert:
      serializedVersion: 2
      x: 0
      y: -76
      width: 52
      height: 76
    advance: 52
    flipped: 0
  - serializedVersion: 2
    index: 54
    uv:
      serializedVersion: 2
      x: 0.4140625
      y: 0.8496094
      width: 0.203125
      height: -0.1484375
    vert:
      serializedVersion: 2
      x: 0
      y: -76
      width: 52
      height: 76
    advance: 52
    flipped: 0
  - serializedVersion: 2
    index: 55
    uv:
      serializedVersion: 2
      x: 0.390625
      y: 0.69921875
      width: 0.1875
      height: -0.1484375
    vert:
      serializedVersion: 2
      x: 0
      y: -76
      width: 48
      height: 76
    advance: 48
    flipped: 0
  - serializedVersion: 2
    index: 56
    uv:
      serializedVersion: 2
      x: 0.58203125
      y: 0.69921875
      width: 0.1875
      height: -0.1484375
    vert:
      serializedVersion: 2
      x: 0
      y: -76
      width: 48
      height: 76
    advance: 48
    flipped: 0
  - serializedVersion: 2
    index: 57
    uv:
      serializedVersion: 2
      x: 0
      y: 0.69921875
      width: 0.1953125
      height: -0.1484375
    vert:
      serializedVersion: 2
      x: 0
      y: -76
      width: 50
      height: 76
    advance: 50
    flipped: 0
  - serializedVersion: 2
    index: 20493
    uv:
      serializedVersion: 2
      x: 0
      y: 1
      width: 0.3046875
      height: -0.1484375
    vert:
      serializedVersion: 2
      x: 0
      y: -76
      width: 78
      height: 76
    advance: 78
    flipped: 0
  - serializedVersion: 2
    index: 20987
    uv:
      serializedVersion: 2
      x: 0.30859375
      y: 1
      width: 0.296875
      height: -0.1484375
    vert:
      serializedVersion: 2
      x: 0
      y: -76
      width: 76
      height: 76
    advance: 76
    flipped: 0
  - serializedVersion: 2
    index: 26292
    uv:
      serializedVersion: 2
      x: 0.609375
      y: 1
      width: 0.296875
      height: -0.1484375
    vert:
      serializedVersion: 2
      x: 0
      y: -76
      width: 76
      height: 76
    advance: 76
    flipped: 0
  m_KerningValues: []
  m_PixelScale: 0.1
  m_FontData: 
  m_Ascent: 0
  m_Descent: 0
  m_DefaultStyle: 0
  m_FontNames: []
  m_FallbackFonts: []
  m_FontRenderingMode: 0
