%YAML 1.1
%TAG !u! tag:unity3d.com,2011:
--- !u!47 &1
QualitySettings:
  m_ObjectHideFlags: 0
  serializedVersion: 5
  m_CurrentQuality: 0
  m_QualitySettings:
  - serializedVersion: 2
    name: Beautiful
    pixelLightCount: 3
    shadows: 1
    shadowResolution: 0
    shadowProjection: 0
    shadowCascades: 1
    shadowDistance: 200
    shadowNearPlaneOffset: 2
    shadowCascade2Split: 0.33333334
    shadowCascade4Split: {x: 0.06666667, y: 0.2, z: 0.46666667}
    blendWeights: 4
    textureQuality: 0
    anisotropicTextures: 2
    antiAliasing: 2
    softParticles: 0
    softVegetation: 1
    realtimeReflectionProbes: 0
    billboardsFaceCameraPosition: 0
    vSyncCount: 0
    lodBias: 1.5
    maximumLODLevel: 0
    particleRaycastBudget: 1024
    asyncUploadTimeSlice: 2
    asyncUploadBufferSize: 4
    excludedTargetPlatforms: []
  m_PerPlatformDefaultQuality:
    Android: 0
    Nintendo 3DS: 0
    PS4: 0
    PSM: 0
    PSP2: 0
    Samsung TV: 0
    Standalone: 0
    Switch: 0
    Tizen: 0
    Web: 0
    WebGL: 0
    WiiU: 0
    Windows Store Apps: 0
    XboxOne: 0
    iPhone: 0
    tvOS: 0
