info face="Arial" size=32 bold=0 italic=0 charset="" unicode=1 stretchH=100 smooth=1 aa=1 padding=0,0,0,0 spacing=1,1 outline=0
common lineHeight=32 base=26 scaleW=128 scaleH=128 pages=1 packed=0 alphaChnl=1 redChnl=0 greenChnl=0 blueChnl=0
page id=0 file="datiTick_0.tga"
chars count=10
char id=48   x=64    y=0     width=29    height=37    xoffset=0     yoffset=0     xadvance=29    page=0  chnl=15
char id=49   x=0     y=76    width=21    height=37    xoffset=0     yoffset=0     xadvance=21    page=0  chnl=15
char id=50   x=94    y=0     width=29    height=37    xoffset=0     yoffset=0     xadvance=29    page=0  chnl=15
char id=51   x=22    y=76    width=29    height=36    xoffset=0     yoffset=0     xadvance=29    page=0  chnl=15
char id=52   x=0     y=38    width=29    height=37    xoffset=0     yoffset=0     xadvance=29    page=0  chnl=15
char id=53   x=0     y=0     width=32    height=37    xoffset=0     yoffset=0     xadvance=32    page=0  chnl=15
char id=54   x=30    y=38    width=29    height=37    xoffset=0     yoffset=0     xadvance=29    page=0  chnl=15
char id=55   x=60    y=38    width=28    height=37    xoffset=0     yoffset=0     xadvance=28    page=0  chnl=15
char id=56   x=33    y=0     width=30    height=37    xoffset=0     yoffset=0     xadvance=30    page=0  chnl=15
char id=57   x=89    y=38    width=27    height=37    xoffset=0     yoffset=0     xadvance=27    page=0  chnl=15
