0 - 45 loop stand
0 - 120 loop stand
****************下面为额外骨骼导出***************
[Bone10]
[Bone10(mirrored)]
****************下面为特效绑定*******************
[Bone10] effect/wing/5631506/5631506_L_Bone10.prefab
[Bone10(mirrored)] effect/wing/5631506/5631506_R_Bone10.prefab