%YAML 1.1
%TAG !u! tag:unity3d.com,2011:
--- !u!1001 &100100000
Prefab:
  m_ObjectHideFlags: 1
  serializedVersion: 2
  m_Modification:
    m_TransformParent: {fileID: 0}
    m_Modifications: []
    m_RemovedComponents: []
  m_ParentPrefab: {fileID: 0}
  m_RootGameObject: {fileID: 1924841953373928}
  m_IsPrefabParent: 1
--- !u!1 &1099372431792938
GameObject:
  m_ObjectHideFlags: 0
  m_PrefabParentObject: {fileID: 0}
  m_PrefabInternal: {fileID: 100100000}
  serializedVersion: 5
  m_Component:
  - component: {fileID: 4739711061501652}
  m_Layer: 0
  m_Name: Bip01 L UpperArm
  m_TagString: Untagged
  m_Icon: {fileID: 0}
  m_NavMeshLayer: 0
  m_StaticEditorFlags: 0
  m_IsActive: 1
--- !u!1 &1147503879824554
GameObject:
  m_ObjectHideFlags: 0
  m_PrefabParentObject: {fileID: 0}
  m_PrefabInternal: {fileID: 100100000}
  serializedVersion: 5
  m_Component:
  - component: {fileID: 4407059229830414}
  m_Layer: 0
  m_Name: ride
  m_TagString: Untagged
  m_Icon: {fileID: 0}
  m_NavMeshLayer: 0
  m_StaticEditorFlags: 0
  m_IsActive: 1
--- !u!1 &1243318115965954
GameObject:
  m_ObjectHideFlags: 0
  m_PrefabParentObject: {fileID: 0}
  m_PrefabInternal: {fileID: 100100000}
  serializedVersion: 5
  m_Component:
  - component: {fileID: 4463362612031810}
  m_Layer: 0
  m_Name: Bip01 R Thigh
  m_TagString: Untagged
  m_Icon: {fileID: 0}
  m_NavMeshLayer: 0
  m_StaticEditorFlags: 0
  m_IsActive: 1
--- !u!1 &1423973275693008
GameObject:
  m_ObjectHideFlags: 0
  m_PrefabParentObject: {fileID: 0}
  m_PrefabInternal: {fileID: 100100000}
  serializedVersion: 5
  m_Component:
  - component: {fileID: 4079144158350960}
  m_Layer: 0
  m_Name: Bip01 L Thigh
  m_TagString: Untagged
  m_Icon: {fileID: 0}
  m_NavMeshLayer: 0
  m_StaticEditorFlags: 0
  m_IsActive: 1
--- !u!1 &1473834831513892
GameObject:
  m_ObjectHideFlags: 0
  m_PrefabParentObject: {fileID: 0}
  m_PrefabInternal: {fileID: 100100000}
  serializedVersion: 5
  m_Component:
  - component: {fileID: 4137889809084518}
  m_Layer: 0
  m_Name: Bip01 R UpperArm
  m_TagString: Untagged
  m_Icon: {fileID: 0}
  m_NavMeshLayer: 0
  m_StaticEditorFlags: 0
  m_IsActive: 1
--- !u!1 &1746363221535240
GameObject:
  m_ObjectHideFlags: 0
  m_PrefabParentObject: {fileID: 0}
  m_PrefabInternal: {fileID: 100100000}
  serializedVersion: 5
  m_Component:
  - component: {fileID: 4544821448637000}
  m_Layer: 0
  m_Name: Bip01 Spine1
  m_TagString: Untagged
  m_Icon: {fileID: 0}
  m_NavMeshLayer: 0
  m_StaticEditorFlags: 0
  m_IsActive: 1
--- !u!1 &1905709222291632
GameObject:
  m_ObjectHideFlags: 0
  m_PrefabParentObject: {fileID: 0}
  m_PrefabInternal: {fileID: 100100000}
  serializedVersion: 5
  m_Component:
  - component: {fileID: 4929621157291828}
  - component: {fileID: 137506190859574550}
  m_Layer: 0
  m_Name: zuoqi
  m_TagString: Untagged
  m_Icon: {fileID: 0}
  m_NavMeshLayer: 0
  m_StaticEditorFlags: 0
  m_IsActive: 1
--- !u!1 &1924841953373928
GameObject:
  m_ObjectHideFlags: 0
  m_PrefabParentObject: {fileID: 0}
  m_PrefabInternal: {fileID: 100100000}
  serializedVersion: 5
  m_Component:
  - component: {fileID: 4210526512212424}
  - component: {fileID: 95244247242196410}
  - component: {fileID: 114951749793880744}
  m_Layer: 0
  m_Name: 540055
  m_TagString: Untagged
  m_Icon: {fileID: 0}
  m_NavMeshLayer: 0
  m_StaticEditorFlags: 0
  m_IsActive: 1
--- !u!4 &4079144158350960
Transform:
  m_ObjectHideFlags: 1
  m_PrefabParentObject: {fileID: 0}
  m_PrefabInternal: {fileID: 100100000}
  m_GameObject: {fileID: 1423973275693008}
  m_LocalRotation: {x: -0.5758802, y: -0.41892815, z: -0.558914, w: -0.42482495}
  m_LocalPosition: {x: -0.7615324, y: 2.0647047, z: -0.96172243}
  m_LocalScale: {x: 1.0000018, y: 1.0000012, z: 1.0000011}
  m_Children: []
  m_Father: {fileID: 4210526512212424}
  m_RootOrder: 0
  m_LocalEulerAnglesHint: {x: 0, y: 0, z: 0}
--- !u!4 &4137889809084518
Transform:
  m_ObjectHideFlags: 1
  m_PrefabParentObject: {fileID: 0}
  m_PrefabInternal: {fileID: 100100000}
  m_GameObject: {fileID: 1473834831513892}
  m_LocalRotation: {x: 0.50550646, y: 0.5216385, z: -0.46104664, w: -0.50969845}
  m_LocalPosition: {x: 1.5513892, y: 2.1923172, z: 1.3467773}
  m_LocalScale: {x: 1.0000027, y: 1.0000025, z: 1.0000032}
  m_Children: []
  m_Father: {fileID: 4210526512212424}
  m_RootOrder: 3
  m_LocalEulerAnglesHint: {x: 0, y: 0, z: 0}
--- !u!4 &4210526512212424
Transform:
  m_ObjectHideFlags: 1
  m_PrefabParentObject: {fileID: 0}
  m_PrefabInternal: {fileID: 100100000}
  m_GameObject: {fileID: 1924841953373928}
  m_LocalRotation: {x: 0, y: 0, z: 0, w: 1}
  m_LocalPosition: {x: 0, y: 0, z: 0}
  m_LocalScale: {x: 1, y: 1, z: 1}
  m_Children:
  - {fileID: 4079144158350960}
  - {fileID: 4739711061501652}
  - {fileID: 4463362612031810}
  - {fileID: 4137889809084518}
  - {fileID: 4544821448637000}
  - {fileID: 4407059229830414}
  - {fileID: 4929621157291828}
  m_Father: {fileID: 0}
  m_RootOrder: 0
  m_LocalEulerAnglesHint: {x: 0, y: 0, z: 0}
--- !u!4 &4407059229830414
Transform:
  m_ObjectHideFlags: 1
  m_PrefabParentObject: {fileID: 0}
  m_PrefabInternal: {fileID: 100100000}
  m_GameObject: {fileID: 1147503879824554}
  m_LocalRotation: {x: 0.70710737, y: -0.00000053693265, z: -0.7071063, w: -0.00000029802322}
  m_LocalPosition: {x: -0.0000008721931, y: 3.313939, z: 0.12994598}
  m_LocalScale: {x: 1.0000004, y: 1.0000024, z: 1.000001}
  m_Children: []
  m_Father: {fileID: 4210526512212424}
  m_RootOrder: 5
  m_LocalEulerAnglesHint: {x: 0, y: 0, z: 0}
--- !u!4 &4463362612031810
Transform:
  m_ObjectHideFlags: 1
  m_PrefabParentObject: {fileID: 0}
  m_PrefabInternal: {fileID: 100100000}
  m_GameObject: {fileID: 1243318115965954}
  m_LocalRotation: {x: -0.5690053, y: -0.4170366, z: -0.5748355, w: -0.41458136}
  m_LocalPosition: {x: 0.7531565, y: 2.0647025, z: -0.9617202}
  m_LocalScale: {x: 1.0000015, y: 1.0000007, z: 1.0000008}
  m_Children: []
  m_Father: {fileID: 4210526512212424}
  m_RootOrder: 2
  m_LocalEulerAnglesHint: {x: 0, y: 0, z: 0}
--- !u!4 &4544821448637000
Transform:
  m_ObjectHideFlags: 1
  m_PrefabParentObject: {fileID: 0}
  m_PrefabInternal: {fileID: 100100000}
  m_GameObject: {fileID: 1746363221535240}
  m_LocalRotation: {x: -0.70708114, y: -0.006096028, z: 0.70707995, w: 0.006095006}
  m_LocalPosition: {x: -0.0041912827, y: 1.6879097, z: 0.7625024}
  m_LocalScale: {x: 1.0000005, y: 1.0000018, z: 1.000001}
  m_Children: []
  m_Father: {fileID: 4210526512212424}
  m_RootOrder: 4
  m_LocalEulerAnglesHint: {x: 0, y: 0, z: 0}
--- !u!4 &4739711061501652
Transform:
  m_ObjectHideFlags: 1
  m_PrefabParentObject: {fileID: 0}
  m_PrefabInternal: {fileID: 100100000}
  m_GameObject: {fileID: 1099372431792938}
  m_LocalRotation: {x: -0.39464155, y: -0.5682413, z: 0.39382446, w: 0.60519606}
  m_LocalPosition: {x: -1.5080568, y: 2.1462622, z: 1.5363847}
  m_LocalScale: {x: 1.0000024, y: 1.0000017, z: 1.0000024}
  m_Children: []
  m_Father: {fileID: 4210526512212424}
  m_RootOrder: 1
  m_LocalEulerAnglesHint: {x: 0, y: 0, z: 0}
--- !u!4 &4929621157291828
Transform:
  m_ObjectHideFlags: 1
  m_PrefabParentObject: {fileID: 0}
  m_PrefabInternal: {fileID: 100100000}
  m_GameObject: {fileID: 1905709222291632}
  m_LocalRotation: {x: -0.70319796, y: -0.07424645, z: 0.70319796, w: 0.07424824}
  m_LocalPosition: {x: -0.0041879276, y: 2.0647035, z: -0.9617215}
  m_LocalScale: {x: 1.0000004, y: 1.0000006, z: 1.0000005}
  m_Children: []
  m_Father: {fileID: 4210526512212424}
  m_RootOrder: 6
  m_LocalEulerAnglesHint: {x: 0, y: 0, z: 0}
--- !u!95 &95244247242196410
Animator:
  serializedVersion: 3
  m_ObjectHideFlags: 1
  m_PrefabParentObject: {fileID: 0}
  m_PrefabInternal: {fileID: 100100000}
  m_GameObject: {fileID: 1924841953373928}
  m_Enabled: 1
  m_Avatar: {fileID: 9000000, guid: ae05d0f1750038d4f9b33bae90b61134, type: 3}
  m_Controller: {fileID: 9100000, guid: 8571d4a7918860c41a68969caf8be455, type: 2}
  m_CullingMode: 2
  m_UpdateMode: 1
  m_ApplyRootMotion: 0
  m_LinearVelocityBlending: 0
  m_WarningMessage: 
  m_HasTransformHierarchy: 0
  m_AllowConstantClipSamplingOptimization: 1
--- !u!114 &114951749793880744
MonoBehaviour:
  m_ObjectHideFlags: 1
  m_PrefabParentObject: {fileID: 0}
  m_PrefabInternal: {fileID: 100100000}
  m_GameObject: {fileID: 1924841953373928}
  m_Enabled: 1
  m_EditorHideFlags: 0
  m_Script: {fileID: 11500000, guid: 7409368713d5c3d4cabb6f121204de64, type: 3}
  m_Name: 
  m_EditorClassIdentifier: 
  effectT:
  - {fileID: 4079144158350960}
  - {fileID: 4739711061501652}
  - {fileID: 4463362612031810}
  - {fileID: 4137889809084518}
  - {fileID: 4544821448637000}
  effects:
  - {fileID: 1192610668041076, guid: 09af5385c1bcc2e429158e5f48938690, type: 2}
  - {fileID: 1552869341580638, guid: 53543c76a2b7bed44816d14643556c74, type: 2}
  - {fileID: 1047507168746538, guid: 9e9b76475e64e604d82fcae8dbf24c50, type: 2}
  - {fileID: 1903791032684446, guid: 9fcd8f3cb6e4fee4194231377c2d4e30, type: 2}
  - {fileID: 1403097617289800, guid: cfa0583602050174fbd1899bf13e6f7f, type: 2}
--- !u!137 &137506190859574550
SkinnedMeshRenderer:
  m_ObjectHideFlags: 1
  m_PrefabParentObject: {fileID: 0}
  m_PrefabInternal: {fileID: 100100000}
  m_GameObject: {fileID: 1905709222291632}
  m_Enabled: 1
  m_CastShadows: 0
  m_ReceiveShadows: 0
  m_MotionVectors: 2
  m_LightProbeUsage: 0
  m_ReflectionProbeUsage: 0
  m_Materials:
  - {fileID: 2100000, guid: 8713e2e45338a984d862ffc89a8ad23d, type: 2}
  m_StaticBatchInfo:
    firstSubMesh: 0
    subMeshCount: 0
  m_StaticBatchRoot: {fileID: 0}
  m_ProbeAnchor: {fileID: 0}
  m_LightProbeVolumeOverride: {fileID: 0}
  m_ScaleInLightmap: 1
  m_PreserveUVs: 0
  m_IgnoreNormalsForChartDetection: 0
  m_ImportantGI: 0
  m_SelectedEditorRenderState: 3
  m_MinimumChartSize: 4
  m_AutoUVMaxDistance: 0.5
  m_AutoUVMaxAngle: 89
  m_LightmapParameters: {fileID: 0}
  m_SortingLayerID: 0
  m_SortingLayer: 0
  m_SortingOrder: 0
  serializedVersion: 2
  m_Quality: 0
  m_UpdateWhenOffscreen: 0
  m_SkinnedMotionVectors: 0
  m_Mesh: {fileID: 4300000, guid: ae05d0f1750038d4f9b33bae90b61134, type: 3}
  m_Bones: []
  m_BlendShapeWeights: []
  m_RootBone: {fileID: 0}
  m_AABB:
    m_Center: {x: -1.6898873, y: -0.12491596, z: -0.014601707}
    m_Extent: {x: 4.1271944, y: 2.9705315, z: 2.5527806}
  m_DirtyAABB: 0
