5 - 45 loop stand
55 - 85 loop move
****************下面为额外骨骼导出***************
[Bip01 Spine1]
[Bip01 Head]
Bone020
[Bone020(mirrored)]
Bone023
****************下面为特效绑定*******************
[Bip01 Spine1] effect/shengling/510025/Bip01_Spine1.prefab
[Bip01 Head] effect/shengling/510025/Bip01_Head.prefab
Bone020 effect/shengling/510025/Bone020.prefab
[Bone020(mirrored)] effect/shengling/510025/Bone020mirrored.prefab
Bone023 effect/shengling/510025/Bone023.prefab
