5-65 loop stand
340-370 loop stand_fight
685-835 noloop idle
291-311 loop move
159-208 noloop attack1
625-668 noloop attack2
5-65 noloop upgrade
845-953 noloop show
595-606 noloop behit
537-586 noloop dead
****************下面为额外骨骼导出***************
weapon

