40 - 100 loop stand
5 - 30 loop move
****************下面为额外骨骼导出***************
ride
[Bip01 Head]
****************下面为特效绑定*******************
[Bip01 Head] effect/ride/540064/540064_Bip01_Head.prefab