%YAML 1.1
%TAG !u! tag:unity3d.com,2011:
--- !u!128 &12800000
Font:
  m_ObjectHideFlags: 0
  m_PrefabParentObject: {fileID: 0}
  m_PrefabInternal: {fileID: 0}
  m_Name: xiLianLevel
  serializedVersion: 5
  m_LineSpacing: 0.1
  m_DefaultMaterial: {fileID: 2100000, guid: 128083cf54896d446a27937a7d130baf, type: 2}
  m_FontSize: 0
  m_Texture: {fileID: 0}
  m_AsciiStartOffset: 0
  m_Tracking: 1
  m_CharacterSpacing: 0
  m_CharacterPadding: 1
  m_ConvertCase: 0
  m_CharacterRects:
  - serializedVersion: 2
    index: 48
    uv:
      serializedVersion: 2
      x: 0.19335938
      y: 1
      width: 0.18359375
      height: -0.4921875
    vert:
      serializedVersion: 2
      x: 0
      y: -126
      width: 94
      height: 126
    advance: 94
    flipped: 0
  - serializedVersion: 2
    index: 49
    uv:
      serializedVersion: 2
      x: 0.7421875
      y: 0.50390625
      width: 0.14453125
      height: -0.4921875
    vert:
      serializedVersion: 2
      x: 0
      y: -126
      width: 74
      height: 126
    advance: 74
    flipped: 0
  - serializedVersion: 2
    index: 50
    uv:
      serializedVersion: 2
      x: 0.37890625
      y: 1
      width: 0.18359375
      height: -0.4921875
    vert:
      serializedVersion: 2
      x: 0
      y: -126
      width: 94
      height: 126
    advance: 94
    flipped: 0
  - serializedVersion: 2
    index: 51
    uv:
      serializedVersion: 2
      x: 0.5644531
      y: 1
      width: 0.18359375
      height: -0.4921875
    vert:
      serializedVersion: 2
      x: 0
      y: -126
      width: 94
      height: 126
    advance: 94
    flipped: 0
  - serializedVersion: 2
    index: 52
    uv:
      serializedVersion: 2
      x: 0
      y: 1
      width: 0.19140625
      height: -0.4921875
    vert:
      serializedVersion: 2
      x: 0
      y: -126
      width: 98
      height: 126
    advance: 98
    flipped: 0
  - serializedVersion: 2
    index: 53
    uv:
      serializedVersion: 2
      x: 0.75
      y: 1
      width: 0.18359375
      height: -0.4921875
    vert:
      serializedVersion: 2
      x: 0
      y: -126
      width: 94
      height: 126
    advance: 94
    flipped: 0
  - serializedVersion: 2
    index: 54
    uv:
      serializedVersion: 2
      x: 0
      y: 0.50390625
      width: 0.18359375
      height: -0.4921875
    vert:
      serializedVersion: 2
      x: 0
      y: -126
      width: 94
      height: 126
    advance: 94
    flipped: 0
  - serializedVersion: 2
    index: 55
    uv:
      serializedVersion: 2
      x: 0.18554688
      y: 0.50390625
      width: 0.18359375
      height: -0.4921875
    vert:
      serializedVersion: 2
      x: 0
      y: -126
      width: 94
      height: 126
    advance: 94
    flipped: 0
  - serializedVersion: 2
    index: 56
    uv:
      serializedVersion: 2
      x: 0.37109375
      y: 0.50390625
      width: 0.18359375
      height: -0.4921875
    vert:
      serializedVersion: 2
      x: 0
      y: -126
      width: 94
      height: 126
    advance: 94
    flipped: 0
  - serializedVersion: 2
    index: 57
    uv:
      serializedVersion: 2
      x: 0.5566406
      y: 0.50390625
      width: 0.18359375
      height: -0.4921875
    vert:
      serializedVersion: 2
      x: 0
      y: -126
      width: 94
      height: 126
    advance: 94
    flipped: 0
  m_KerningValues: []
  m_PixelScale: 0.1
  m_FontData: 
  m_Ascent: 0
  m_Descent: 0
  m_DefaultStyle: 0
  m_FontNames: []
  m_FallbackFonts: []
  m_FontRenderingMode: 0
