10 - 50 loop stand
****************下面为额外骨骼导出***************
Bone033
Bone034
Bone035
Bone040
Bone041
Bone042
****************下面为特效绑定*******************
Bone033 effect/wing/5631519/Bone033.prefab
Bone034 effect/wing/5631519/Bone034.prefab
Bone035 effect/wing/5631519/Bone035.prefab
Bone040 effect/wing/5631519/Bone040.prefab
Bone041 effect/wing/5631519/Bone041.prefab
Bone042 effect/wing/5631519/Bone042.prefab