%YAML 1.1
%TAG !u! tag:unity3d.com,2011:
--- !u!1001 &100100000
Prefab:
  m_ObjectHideFlags: 1
  serializedVersion: 2
  m_Modification:
    m_TransformParent: {fileID: 0}
    m_Modifications: []
    m_RemovedComponents: []
  m_ParentPrefab: {fileID: 0}
  m_RootGameObject: {fileID: 1118240063106078}
  m_IsPrefabParent: 1
--- !u!1 &1008301367266580
GameObject:
  m_ObjectHideFlags: 0
  m_PrefabParentObject: {fileID: 0}
  m_PrefabInternal: {fileID: 100100000}
  serializedVersion: 5
  m_Component:
  - component: {fileID: 4125384459426644}
  - component: {fileID: 137027068064984936}
  m_Layer: 0
  m_Name: zuoqi_baihu
  m_TagString: Untagged
  m_Icon: {fileID: 0}
  m_NavMeshLayer: 0
  m_StaticEditorFlags: 0
  m_IsActive: 1
--- !u!1 &1118240063106078
GameObject:
  m_ObjectHideFlags: 0
  m_PrefabParentObject: {fileID: 0}
  m_PrefabInternal: {fileID: 100100000}
  serializedVersion: 5
  m_Component:
  - component: {fileID: 4737826943914598}
  - component: {fileID: 95228966943610756}
  - component: {fileID: 114374562753178230}
  m_Layer: 0
  m_Name: ride
  m_TagString: Untagged
  m_Icon: {fileID: 0}
  m_NavMeshLayer: 0
  m_StaticEditorFlags: 0
  m_IsActive: 1
--- !u!1 &1290812974720012
GameObject:
  m_ObjectHideFlags: 0
  m_PrefabParentObject: {fileID: 0}
  m_PrefabInternal: {fileID: 100100000}
  serializedVersion: 5
  m_Component:
  - component: {fileID: 4751993558120772}
  m_Layer: 0
  m_Name: Bone07
  m_TagString: Untagged
  m_Icon: {fileID: 0}
  m_NavMeshLayer: 0
  m_StaticEditorFlags: 0
  m_IsActive: 1
--- !u!1 &1410442504769544
GameObject:
  m_ObjectHideFlags: 0
  m_PrefabParentObject: {fileID: 0}
  m_PrefabInternal: {fileID: 100100000}
  serializedVersion: 5
  m_Component:
  - component: {fileID: 4136198028061370}
  m_Layer: 0
  m_Name: Bip02 R Hand
  m_TagString: Untagged
  m_Icon: {fileID: 0}
  m_NavMeshLayer: 0
  m_StaticEditorFlags: 0
  m_IsActive: 1
--- !u!1 &1546853759277030
GameObject:
  m_ObjectHideFlags: 0
  m_PrefabParentObject: {fileID: 0}
  m_PrefabInternal: {fileID: 100100000}
  serializedVersion: 5
  m_Component:
  - component: {fileID: 4020604716613916}
  m_Layer: 0
  m_Name: Camera_01
  m_TagString: Untagged
  m_Icon: {fileID: 0}
  m_NavMeshLayer: 0
  m_StaticEditorFlags: 0
  m_IsActive: 1
--- !u!1 &1552918423212080
GameObject:
  m_ObjectHideFlags: 0
  m_PrefabParentObject: {fileID: 0}
  m_PrefabInternal: {fileID: 100100000}
  serializedVersion: 5
  m_Component:
  - component: {fileID: 4553422232977668}
  m_Layer: 0
  m_Name: Bip02 L Foot
  m_TagString: Untagged
  m_Icon: {fileID: 0}
  m_NavMeshLayer: 0
  m_StaticEditorFlags: 0
  m_IsActive: 1
--- !u!1 &1600146009459130
GameObject:
  m_ObjectHideFlags: 1
  m_PrefabParentObject: {fileID: 0}
  m_PrefabInternal: {fileID: 100100000}
  serializedVersion: 5
  m_Component:
  - component: {fileID: 4686694582458892}
  - component: {fileID: 20977893366099938}
  m_Layer: 0
  m_Name: Camera
  m_TagString: Untagged
  m_Icon: {fileID: 0}
  m_NavMeshLayer: 0
  m_StaticEditorFlags: 0
  m_IsActive: 1
--- !u!1 &1695281843310790
GameObject:
  m_ObjectHideFlags: 0
  m_PrefabParentObject: {fileID: 0}
  m_PrefabInternal: {fileID: 100100000}
  serializedVersion: 5
  m_Component:
  - component: {fileID: 4881972374052386}
  m_Layer: 0
  m_Name: Bip02 Spine1
  m_TagString: Untagged
  m_Icon: {fileID: 0}
  m_NavMeshLayer: 0
  m_StaticEditorFlags: 0
  m_IsActive: 1
--- !u!1 &1885165171463798
GameObject:
  m_ObjectHideFlags: 0
  m_PrefabParentObject: {fileID: 0}
  m_PrefabInternal: {fileID: 100100000}
  serializedVersion: 5
  m_Component:
  - component: {fileID: 4383257306911002}
  m_Layer: 0
  m_Name: Bip02 L Hand
  m_TagString: Untagged
  m_Icon: {fileID: 0}
  m_NavMeshLayer: 0
  m_StaticEditorFlags: 0
  m_IsActive: 1
--- !u!1 &1885489696297358
GameObject:
  m_ObjectHideFlags: 0
  m_PrefabParentObject: {fileID: 0}
  m_PrefabInternal: {fileID: 100100000}
  serializedVersion: 5
  m_Component:
  - component: {fileID: 4735502310440336}
  m_Layer: 0
  m_Name: Bip02 R Foot
  m_TagString: Untagged
  m_Icon: {fileID: 0}
  m_NavMeshLayer: 0
  m_StaticEditorFlags: 0
  m_IsActive: 1
--- !u!4 &4020604716613916
Transform:
  m_ObjectHideFlags: 1
  m_PrefabParentObject: {fileID: 0}
  m_PrefabInternal: {fileID: 100100000}
  m_GameObject: {fileID: 1546853759277030}
  m_LocalRotation: {x: 0.014372851, y: 0.7881266, z: 0.01121975, w: 0.6152431}
  m_LocalPosition: {x: 228.29576, y: 41.42072, z: 299.70673}
  m_LocalScale: {x: 0.99999964, y: 1.0000005, z: 0.99999905}
  m_Children:
  - {fileID: 4686694582458892}
  m_Father: {fileID: 4737826943914598}
  m_RootOrder: 6
  m_LocalEulerAnglesHint: {x: 0, y: 0, z: 0}
--- !u!4 &4125384459426644
Transform:
  m_ObjectHideFlags: 1
  m_PrefabParentObject: {fileID: 0}
  m_PrefabInternal: {fileID: 100100000}
  m_GameObject: {fileID: 1008301367266580}
  m_LocalRotation: {x: 0.84442794, y: 0.054542273, z: 0.5299485, w: 0.055868894}
  m_LocalPosition: {x: 236.19707, y: 39.34732, z: 320.82666}
  m_LocalScale: {x: 1.0000001, y: 1.0000004, z: 1.0000007}
  m_Children: []
  m_Father: {fileID: 4737826943914598}
  m_RootOrder: 7
  m_LocalEulerAnglesHint: {x: 0, y: 0, z: 0}
--- !u!4 &4136198028061370
Transform:
  m_ObjectHideFlags: 1
  m_PrefabParentObject: {fileID: 0}
  m_PrefabInternal: {fileID: 100100000}
  m_GameObject: {fileID: 1410442504769544}
  m_LocalRotation: {x: -0.83136165, y: 0.028561143, z: -0.55487543, w: -0.011634756}
  m_LocalPosition: {x: 234.87947, y: 37.9241, z: 319.54492}
  m_LocalScale: {x: 1.0000036, y: 1.0000045, z: 1.0000045}
  m_Children: []
  m_Father: {fileID: 4737826943914598}
  m_RootOrder: 3
  m_LocalEulerAnglesHint: {x: 0, y: 0, z: 0}
--- !u!4 &4383257306911002
Transform:
  m_ObjectHideFlags: 1
  m_PrefabParentObject: {fileID: 0}
  m_PrefabInternal: {fileID: 100100000}
  m_GameObject: {fileID: 1885165171463798}
  m_LocalRotation: {x: -0.83362347, y: -0.12328241, z: -0.52590346, w: -0.11532151}
  m_LocalPosition: {x: 235.43059, y: 38.6962, z: 317.92453}
  m_LocalScale: {x: 1.0000031, y: 1.0000037, z: 1.0000042}
  m_Children: []
  m_Father: {fileID: 4737826943914598}
  m_RootOrder: 1
  m_LocalEulerAnglesHint: {x: 0, y: 0, z: 0}
--- !u!4 &4553422232977668
Transform:
  m_ObjectHideFlags: 1
  m_PrefabParentObject: {fileID: 0}
  m_PrefabInternal: {fileID: 100100000}
  m_GameObject: {fileID: 1552918423212080}
  m_LocalRotation: {x: -0.52523047, y: 0.0899989, z: 0.83913803, w: -0.10899802}
  m_LocalPosition: {x: 236.90843, y: 38.908653, z: 321.45535}
  m_LocalScale: {x: 1.000003, y: 1.000003, z: 1.000003}
  m_Children: []
  m_Father: {fileID: 4737826943914598}
  m_RootOrder: 0
  m_LocalEulerAnglesHint: {x: 0, y: 0, z: 0}
--- !u!4 &4686694582458892
Transform:
  m_ObjectHideFlags: 1
  m_PrefabParentObject: {fileID: 0}
  m_PrefabInternal: {fileID: 100100000}
  m_GameObject: {fileID: 1600146009459130}
  m_LocalRotation: {x: 0, y: -0.7071068, z: 0, w: 0.7071068}
  m_LocalPosition: {x: 0, y: 0, z: 0}
  m_LocalScale: {x: 1, y: 1, z: 1}
  m_Children: []
  m_Father: {fileID: 4020604716613916}
  m_RootOrder: 0
  m_LocalEulerAnglesHint: {x: 0, y: -90, z: 0}
--- !u!4 &4735502310440336
Transform:
  m_ObjectHideFlags: 1
  m_PrefabParentObject: {fileID: 0}
  m_PrefabInternal: {fileID: 100100000}
  m_GameObject: {fileID: 1885489696297358}
  m_LocalRotation: {x: -0.5359296, y: 0.011661887, z: 0.84409803, w: 0.011917571}
  m_LocalPosition: {x: 236.27586, y: 38.534733, z: 321.953}
  m_LocalScale: {x: 1.0000026, y: 1.0000027, z: 1.0000021}
  m_Children: []
  m_Father: {fileID: 4737826943914598}
  m_RootOrder: 2
  m_LocalEulerAnglesHint: {x: 0, y: 0, z: 0}
--- !u!4 &4737826943914598
Transform:
  m_ObjectHideFlags: 1
  m_PrefabParentObject: {fileID: 0}
  m_PrefabInternal: {fileID: 100100000}
  m_GameObject: {fileID: 1118240063106078}
  m_LocalRotation: {x: 0, y: 0, z: 0, w: 1}
  m_LocalPosition: {x: 0, y: 0, z: 0}
  m_LocalScale: {x: 1, y: 1, z: 1}
  m_Children:
  - {fileID: 4553422232977668}
  - {fileID: 4383257306911002}
  - {fileID: 4735502310440336}
  - {fileID: 4136198028061370}
  - {fileID: 4881972374052386}
  - {fileID: 4751993558120772}
  - {fileID: 4020604716613916}
  - {fileID: 4125384459426644}
  m_Father: {fileID: 0}
  m_RootOrder: 0
  m_LocalEulerAnglesHint: {x: 0, y: 0, z: 0}
--- !u!4 &4751993558120772
Transform:
  m_ObjectHideFlags: 1
  m_PrefabParentObject: {fileID: 0}
  m_PrefabInternal: {fileID: 100100000}
  m_GameObject: {fileID: 1290812974720012}
  m_LocalRotation: {x: -0.5248729, y: 0.028105639, z: 0.8506219, w: 0.012684752}
  m_LocalPosition: {x: 237.36497, y: 39.360435, z: 323.26038}
  m_LocalScale: {x: 1.0000026, y: 1.0000031, z: 1.0000017}
  m_Children: []
  m_Father: {fileID: 4737826943914598}
  m_RootOrder: 5
  m_LocalEulerAnglesHint: {x: 0, y: 0, z: 0}
--- !u!4 &4881972374052386
Transform:
  m_ObjectHideFlags: 1
  m_PrefabParentObject: {fileID: 0}
  m_PrefabInternal: {fileID: 100100000}
  m_GameObject: {fileID: 1695281843310790}
  m_LocalRotation: {x: 0.84002274, y: -0.06974838, z: 0.5373608, w: -0.027212262}
  m_LocalPosition: {x: 235.62793, y: 39.30737, z: 319.66507}
  m_LocalScale: {x: 1.0000011, y: 1.0000029, z: 1.0000024}
  m_Children: []
  m_Father: {fileID: 4737826943914598}
  m_RootOrder: 4
  m_LocalEulerAnglesHint: {x: 0, y: 0, z: 0}
--- !u!20 &20977893366099938
Camera:
  m_ObjectHideFlags: 1
  m_PrefabParentObject: {fileID: 0}
  m_PrefabInternal: {fileID: 100100000}
  m_GameObject: {fileID: 1600146009459130}
  m_Enabled: 1
  serializedVersion: 2
  m_ClearFlags: 1
  m_BackGroundColor: {r: 0.19215687, g: 0.3019608, b: 0.4745098, a: 0}
  m_NormalizedViewPortRect:
    serializedVersion: 2
    x: 0
    y: 0
    width: 1
    height: 1
  near clip plane: 0.3
  far clip plane: 1000
  field of view: 35
  orthographic: 0
  orthographic size: 5
  m_Depth: 0
  m_CullingMask:
    serializedVersion: 2
    m_Bits: 4294967295
  m_RenderingPath: -1
  m_TargetTexture: {fileID: 0}
  m_TargetDisplay: 0
  m_TargetEye: 3
  m_HDR: 0
  m_AllowMSAA: 0
  m_ForceIntoRT: 0
  m_OcclusionCulling: 0
  m_StereoConvergence: 10
  m_StereoSeparation: 0.022
  m_StereoMirrorMode: 0
--- !u!95 &95228966943610756
Animator:
  serializedVersion: 3
  m_ObjectHideFlags: 1
  m_PrefabParentObject: {fileID: 0}
  m_PrefabInternal: {fileID: 100100000}
  m_GameObject: {fileID: 1118240063106078}
  m_Enabled: 1
  m_Avatar: {fileID: 9000000, guid: e88b60cf8b249ff469a60da0bbb758e9, type: 3}
  m_Controller: {fileID: 9100000, guid: f6cff4493ab7d464aa8f4e154cfede4a, type: 2}
  m_CullingMode: 0
  m_UpdateMode: 0
  m_ApplyRootMotion: 0
  m_LinearVelocityBlending: 0
  m_WarningMessage: 
  m_HasTransformHierarchy: 0
  m_AllowConstantClipSamplingOptimization: 1
--- !u!114 &114374562753178230
MonoBehaviour:
  m_ObjectHideFlags: 1
  m_PrefabParentObject: {fileID: 0}
  m_PrefabInternal: {fileID: 100100000}
  m_GameObject: {fileID: 1118240063106078}
  m_Enabled: 1
  m_EditorHideFlags: 0
  m_Script: {fileID: 11500000, guid: 7409368713d5c3d4cabb6f121204de64, type: 3}
  m_Name: 
  m_EditorClassIdentifier: 
  effectT:
  - {fileID: 4553422232977668}
  - {fileID: 4383257306911002}
  - {fileID: 4735502310440336}
  - {fileID: 4136198028061370}
  - {fileID: 4881972374052386}
  - {fileID: 4751993558120772}
  effects:
  - {fileID: 1265218464961682, guid: d72a6221e612104459f13853ce838cc8, type: 2}
  - {fileID: 1712500079285846, guid: 7837eb5a10f854346806b7edbb124a8f, type: 2}
  - {fileID: 1753919629436352, guid: 3932d4a58f2ec1345b39e87594c30feb, type: 2}
  - {fileID: 1668838456636560, guid: f709f6f41d28eb04cbdd1da6a8285faf, type: 2}
  - {fileID: 1885948527387318, guid: 712e737a451b81b4eb0c996854a0fd11, type: 2}
  - {fileID: 1669640327269286, guid: cc95edc67ccacc34096132af3c6f93bf, type: 2}
--- !u!137 &137027068064984936
SkinnedMeshRenderer:
  m_ObjectHideFlags: 1
  m_PrefabParentObject: {fileID: 0}
  m_PrefabInternal: {fileID: 100100000}
  m_GameObject: {fileID: 1008301367266580}
  m_Enabled: 1
  m_CastShadows: 0
  m_ReceiveShadows: 0
  m_MotionVectors: 2
  m_LightProbeUsage: 0
  m_ReflectionProbeUsage: 0
  m_Materials:
  - {fileID: 2100000, guid: eef2b5e753080df41a0955f5f74b8195, type: 2}
  m_StaticBatchInfo:
    firstSubMesh: 0
    subMeshCount: 0
  m_StaticBatchRoot: {fileID: 0}
  m_ProbeAnchor: {fileID: 0}
  m_LightProbeVolumeOverride: {fileID: 0}
  m_ScaleInLightmap: 1
  m_PreserveUVs: 0
  m_IgnoreNormalsForChartDetection: 0
  m_ImportantGI: 0
  m_SelectedEditorRenderState: 3
  m_MinimumChartSize: 4
  m_AutoUVMaxDistance: 0.5
  m_AutoUVMaxAngle: 89
  m_LightmapParameters: {fileID: 0}
  m_SortingLayerID: 0
  m_SortingLayer: 0
  m_SortingOrder: 0
  serializedVersion: 2
  m_Quality: 0
  m_UpdateWhenOffscreen: 0
  m_SkinnedMotionVectors: 0
  m_Mesh: {fileID: 4300000, guid: e88b60cf8b249ff469a60da0bbb758e9, type: 3}
  m_Bones: []
  m_BlendShapeWeights: []
  m_RootBone: {fileID: 0}
  m_AABB:
    m_Center: {x: 0.29767025, y: -0.0737654, z: -0.018378794}
    m_Extent: {x: 4.0258555, y: 1.7879646, z: 1.1984861}
  m_DirtyAABB: 0
