10 - 50 loop stand
60 - 100 loop move
****************下面为额外骨骼导出***************
Bone007
Bone008
Bone024
****************下面为特效绑定*******************
Bone007 effect/shengling/510020/Bone007.prefab
Bone008 effect/shengling/510020/Bone008.prefab
Bone024 effect/shengling/510020/Bone024.prefab



