0 - 40 loop stand
****************下面为额外骨骼导出***************
Bone003
Bone031
****************下面为特效绑定*******************
Bone003 effect/wing/5631528/5631528_Bone003.prefab
Bone031 effect/wing/5631528/5631528_Bone031.prefab

