100-160 loop stand
420-460 loop stand_fight
100-160 loop idle
190-210 loop move
230-260 noloop attack1
300-330 noloop attack2
100-160 noloop upgrade
470-616 noloop show
360-410 noloop dead
****************下面为额外骨骼导出***************
weapon