200 - 240 loop move
0 - 60 loop stand
****************下面为额外骨骼导出***************
ride
Bone18
[Bip01 Head]
[Bip01 Spine1]
Bone24
Bone04
Bone07
****************下面为特效绑定*******************
Bone18 effect/ride/1540051/Bone18.prefab
[Bip01 Head] effect/ride/1540051/Bip01_Head.prefab
[Bip01 Spine1] effect/ride/1540051/Bip01_Spine1.prefab
Bone24 effect/ride/1540051/Bone24.prefab
Bone04 effect/ride/1540051/Bone04.prefab
Bone07 effect/ride/1540051/Bone07.prefab
