380 - 440 loop stand
380 - 440 loop idle
60 - 82 loop move
260 - 281 noloop attack1
460 - 505 noloop attack2
520 - 550 noloop upgrade
460 - 505 noloop show
****************下面为额外骨骼导出***************
weapon
****************下面为特效绑定*******************
weapon effect/pet/200375/200375_wuqi.prefab