%YAML 1.1
%TAG !u! tag:unity3d.com,2011:
--- !u!21 &2100000
Material:
  serializedVersion: 6
  m_ObjectHideFlags: 0
  m_PrefabParentObject: {fileID: 0}
  m_PrefabInternal: {fileID: 0}
  m_Name: WaterBasicDaytime_3200
  m_Shader: {fileID: 4800000, guid: 7170307fc8df3b54495061c63e104699, type: 3}
  m_ShaderKeywords: 
  m_LightmapFlags: 4
  m_EnableInstancingVariants: 0
  m_DoubleSidedGI: 0
  m_CustomRenderQueue: -1
  stringTagMap: {}
  disabledShaderPasses: []
  m_SavedProperties:
    serializedVersion: 3
    m_TexEnvs:
    - _BumpMap:
        m_Texture: {fileID: 2800000, guid: e2b2daa5943b26b4e81078588df52ef8, type: 3}
        m_Scale: {x: 1, y: 1}
        m_Offset: {x: 0, y: 0}
    - _BumpMap2:
        m_Texture: {fileID: 2800000, guid: 279fb0a19d11d4a6d00051fa8d76c639, type: 3}
        m_Scale: {x: 1, y: 1}
        m_Offset: {x: 0, y: 0}
    - _ColorControl:
        m_Texture: {fileID: 2800000, guid: a00b37b47e0042d46bffaf3ecd83d7da, type: 3}
        m_Scale: {x: 1, y: 1}
        m_Offset: {x: 0, y: 0}
    - _ColorControlCube:
        m_Texture: {fileID: 8900000, guid: 98c330f39d11745ad0004adb8d76c639, type: 3}
        m_Scale: {x: 1, y: 1}
        m_Offset: {x: 0, y: 0}
    - _ColorGradient:
        m_Texture: {fileID: 2800000, guid: 8403d3349d112ba4d000be1be39e7c39, type: 3}
        m_Scale: {x: 1, y: 1}
        m_Offset: {x: 0, y: 0}
    - _MainTex:
        m_Texture: {fileID: 2800000, guid: c2ef94ff9d11915d1100a04b44295342, type: 3}
        m_Scale: {x: 1, y: 1}
        m_Offset: {x: 0, y: 0}
    - _Normals:
        m_Texture: {fileID: 2800000, guid: a084982ec36f55b4486da864ad93c2ee, type: 3}
        m_Scale: {x: 1, y: 1}
        m_Offset: {x: 0, y: 0}
    - _Reflection:
        m_Texture: {fileID: 0}
        m_Scale: {x: 1, y: 1}
        m_Offset: {x: 0, y: 0}
    - _ReflectionTex:
        m_Texture: {fileID: 8400000, guid: 21bb33409d118354d000dcabe39e7c39, type: 2}
        m_Scale: {x: 1, y: 1}
        m_Offset: {x: 0, y: 0}
    - _Shadermap:
        m_Texture: {fileID: 0}
        m_Scale: {x: 1, y: 1}
        m_Offset: {x: 0, y: 0}
    - _WavesTex:
        m_Texture: {fileID: 0}
        m_Scale: {x: 1, y: 1}
        m_Offset: {x: 0, y: 0}
    m_Floats:
    - _BumpPeturb: 82.07547
    - _BumpPeturb2: 0.745283
    - _Cutoff: 0.5
    - _Depth: 6.7
    - _Depthdarkness: 1
    - _Fresnelexponent: -0.18
    - _Glossiness: 0.724
    - _Highlight: 33.207546
    - _RefractionAmount: 0.046
    - _RimSize: 0
    - _Rimfalloff: 0.05
    - _Rimtiling: 2
    - _Shininess: 1
    - _SurfaceHighlight: 0.288
    - _SurfaceHightlighttiling: 0.73
    - _Surfacehightlightsize: 0.22
    - _Tiling: 0.25
    - _Transparency: 0.471
    - _WaveScale: 0.045
    - _Wavesspeed: 0.2
    - _Wavesstrength: 0
    - _Worldspacetiling: 0
    - _bScale: 0.07
    - _bTwirl: 0.05
    - _colorScale: 0.4
    - _distort: 0.1
    m_Colors:
    - BumpParm: {r: 1, g: 1, b: 1, a: 1}
    - LightPos: {r: -42.3, g: -79.1, b: 23.7, a: 1}
    - WaveSpeed: {r: 6, g: 5, b: 2, a: 1}
    - _BumpMap_ST: {r: 1, g: 1, b: 0, a: 0}
    - _Color: {r: 0, g: 0, b: 0, a: 1}
    - _ColorControlCube_ST: {r: 1, g: 1, b: 0, a: 0}
    - _ColorControl_ST: {r: 1, g: 1, b: 0, a: 0}
    - _EdgeColor: {r: 0, g: 0.1, b: 0, a: 0.1}
    - _FresnelColor: {r: 0.095155686, g: 0.54742867, b: 0.58823526, a: 0.5019608}
    - _MainTex_ST: {r: 1, g: 1, b: 0, a: 0}
    - _RefTex_0: {r: -1517.3702, g: -23.940853, b: -3154.9167, a: 2715.9417}
    - _RefTex_1: {r: 356.58435, g: -313.12567, b: -962.84906, a: 2791.5066}
    - _RefTex_2: {r: 4.95645, g: -0.1870566, b: -13.383406, a: 20.12336}
    - _RefTex_3: {r: 4.955955, g: -0.18703793, b: -13.38207, a: 20.221354}
    - _RimColor: {r: 0.030925598, g: 0.2387752, b: 0.32352942, a: 1}
    - _SpecColor: {r: 0, g: 0, b: 0, a: 0.4}
    - _WaterColor: {r: 0.054011684, g: 0.20890035, b: 0.27205884, a: 1}
    - _WaveSpeed: {r: 1, g: -1, b: -1, a: 1}
    - _horizonColor: {r: 0.38235295, g: 0.84665304, b: 1, a: 0.497}
    - _waterColor: {r: 0.105882354, g: 0.24313726, b: 0.20392157, a: 0.74509805}
    - horizonColor: {r: 0.615, g: 0.796, b: 0.876, a: 1}
    - uvParams: {r: 10, g: 0.02, b: 0.03, a: 0}
    - waveDirX: {r: -2.5, g: 0, b: 7, a: 8}
    - waveDirY: {r: 0, g: 1.5, b: -7, a: 1}
    - waveHeights: {r: 0.8, g: 1, b: 0.1, a: 0.05}
--- !u!1002 &2100001
EditorExtensionImpl:
  serializedVersion: 6
