0 - 32 loop move
40 - 88 loop stand
****************下面为额外骨骼导出***************
ride
[Bip02 L Foot]
[Bip02 L Hand]
[Bip02 R Foot]
[Bip02 R Hand]
[Bip02 Spine1]
Bone08
****************下面为特效绑定*******************


