%YAML 1.1
%TAG !u! tag:unity3d.com,2011:
--- !u!21 &2100000
Material:
  serializedVersion: 6
  m_ObjectHideFlags: 0
  m_PrefabParentObject: {fileID: 0}
  m_PrefabInternal: {fileID: 0}
  m_Name: S_Build_City059
  m_Shader: {fileID: 51, guid: 0000000000000000f000000000000000, type: 0}
  m_ShaderKeywords: 
  m_LightmapFlags: 5
  m_CustomRenderQueue: -1
  stringTagMap: {}
  m_SavedProperties:
    serializedVersion: 2
    m_TexEnvs:
    - first:
        name: <noninit>
      second:
        m_Texture: {fileID: 0}
        m_Scale: {x: 1, y: 1}
        m_Offset: {x: 0, y: 0}
    - first:
        name: _MainTex
      second:
        m_Texture: {fileID: 2800000, guid: 396d9476259ea6a44a26993b43275799, type: 3}
        m_Scale: {x: 1, y: 1}
        m_Offset: {x: 0, y: 0}
    m_Floats:
    - first:
        name: <noninit>
      second: 0
    - first:
        name: _Cutoff
      second: 0.5
    m_Colors:
    - first:
        name: <noninit>
      second: {r: 0, g: 1.0302946e-11, b: 0, a: 1.03028905e-11}
    - first:
        name: _Color
      second: {r: 1, g: 1, b: 1, a: 1}
