%YAML 1.1
%TAG !u! tag:unity3d.com,2011:
--- !u!1001 &100100000
Prefab:
  m_ObjectHideFlags: 1
  serializedVersion: 2
  m_Modification:
    m_TransformParent: {fileID: 0}
    m_Modifications: []
    m_RemovedComponents: []
  m_ParentPrefab: {fileID: 0}
  m_RootGameObject: {fileID: 1577383571980870}
  m_IsPrefabParent: 1
--- !u!1 &1114777958619264
GameObject:
  m_ObjectHideFlags: 0
  m_PrefabParentObject: {fileID: 0}
  m_PrefabInternal: {fileID: 100100000}
  serializedVersion: 5
  m_Component:
  - component: {fileID: 4551583521853252}
  - component: {fileID: 137118167480684040}
  m_Layer: 0
  m_Name: male
  m_TagString: Untagged
  m_Icon: {fileID: 0}
  m_NavMeshLayer: 0
  m_StaticEditorFlags: 0
  m_IsActive: 1
--- !u!1 &1205000491566100
GameObject:
  m_ObjectHideFlags: 0
  m_PrefabParentObject: {fileID: 0}
  m_PrefabInternal: {fileID: 100100000}
  serializedVersion: 5
  m_Component:
  - component: {fileID: 4204891735562688}
  m_Layer: 0
  m_Name: Bip02 Head
  m_TagString: Untagged
  m_Icon: {fileID: 0}
  m_NavMeshLayer: 0
  m_StaticEditorFlags: 0
  m_IsActive: 1
--- !u!1 &1505978606888874
GameObject:
  m_ObjectHideFlags: 0
  m_PrefabParentObject: {fileID: 0}
  m_PrefabInternal: {fileID: 100100000}
  serializedVersion: 5
  m_Component:
  - component: {fileID: 4337332219145742}
  m_Layer: 0
  m_Name: Bip02 L Finger0
  m_TagString: Untagged
  m_Icon: {fileID: 0}
  m_NavMeshLayer: 0
  m_StaticEditorFlags: 0
  m_IsActive: 1
--- !u!1 &1577383571980870
GameObject:
  m_ObjectHideFlags: 0
  m_PrefabParentObject: {fileID: 0}
  m_PrefabInternal: {fileID: 100100000}
  serializedVersion: 5
  m_Component:
  - component: {fileID: 4502365789287990}
  - component: {fileID: 95014619185972436}
  - component: {fileID: 114378109881342108}
  m_Layer: 0
  m_Name: 540050
  m_TagString: Untagged
  m_Icon: {fileID: 0}
  m_NavMeshLayer: 0
  m_StaticEditorFlags: 0
  m_IsActive: 1
--- !u!1 &1686949053480414
GameObject:
  m_ObjectHideFlags: 0
  m_PrefabParentObject: {fileID: 0}
  m_PrefabInternal: {fileID: 100100000}
  serializedVersion: 5
  m_Component:
  - component: {fileID: 4635253028132724}
  m_Layer: 0
  m_Name: Bip02 R Toe0
  m_TagString: Untagged
  m_Icon: {fileID: 0}
  m_NavMeshLayer: 0
  m_StaticEditorFlags: 0
  m_IsActive: 1
--- !u!1 &1769928876231850
GameObject:
  m_ObjectHideFlags: 0
  m_PrefabParentObject: {fileID: 0}
  m_PrefabInternal: {fileID: 100100000}
  serializedVersion: 5
  m_Component:
  - component: {fileID: 4748880326442530}
  m_Layer: 0
  m_Name: ride
  m_TagString: Untagged
  m_Icon: {fileID: 0}
  m_NavMeshLayer: 0
  m_StaticEditorFlags: 0
  m_IsActive: 1
--- !u!1 &1852823882275058
GameObject:
  m_ObjectHideFlags: 0
  m_PrefabParentObject: {fileID: 0}
  m_PrefabInternal: {fileID: 100100000}
  serializedVersion: 5
  m_Component:
  - component: {fileID: 4837644557671746}
  m_Layer: 0
  m_Name: Bip02 L Toe0
  m_TagString: Untagged
  m_Icon: {fileID: 0}
  m_NavMeshLayer: 0
  m_StaticEditorFlags: 0
  m_IsActive: 1
--- !u!1 &1920561136369894
GameObject:
  m_ObjectHideFlags: 0
  m_PrefabParentObject: {fileID: 0}
  m_PrefabInternal: {fileID: 100100000}
  serializedVersion: 5
  m_Component:
  - component: {fileID: 4850296520766792}
  m_Layer: 0
  m_Name: Bip02 R Hand
  m_TagString: Untagged
  m_Icon: {fileID: 0}
  m_NavMeshLayer: 0
  m_StaticEditorFlags: 0
  m_IsActive: 1
--- !u!4 &4204891735562688
Transform:
  m_ObjectHideFlags: 1
  m_PrefabParentObject: {fileID: 0}
  m_PrefabInternal: {fileID: 100100000}
  m_GameObject: {fileID: 1205000491566100}
  m_LocalRotation: {x: -0.6586433, y: 0.2572682, z: 0.6586452, w: -0.25727165}
  m_LocalPosition: {x: 0.0017534057, y: 3.8731213, z: 2.7293162}
  m_LocalScale: {x: 1.0000033, y: 1.0000045, z: 1.0000026}
  m_Children: []
  m_Father: {fileID: 4502365789287990}
  m_RootOrder: 0
  m_LocalEulerAnglesHint: {x: 0, y: 0, z: 0}
--- !u!4 &4337332219145742
Transform:
  m_ObjectHideFlags: 1
  m_PrefabParentObject: {fileID: 0}
  m_PrefabInternal: {fileID: 100100000}
  m_GameObject: {fileID: 1505978606888874}
  m_LocalRotation: {x: 0.72133553, y: 0.062666774, z: -0.6894048, w: -0.021658394}
  m_LocalPosition: {x: -0.35493883, y: 0.11987868, z: 2.1010509}
  m_LocalScale: {x: 1.0000032, y: 1.0000046, z: 1.0000045}
  m_Children: []
  m_Father: {fileID: 4502365789287990}
  m_RootOrder: 1
  m_LocalEulerAnglesHint: {x: 0, y: 0, z: 0}
--- !u!4 &4502365789287990
Transform:
  m_ObjectHideFlags: 1
  m_PrefabParentObject: {fileID: 0}
  m_PrefabInternal: {fileID: 100100000}
  m_GameObject: {fileID: 1577383571980870}
  m_LocalRotation: {x: 0, y: 0, z: 0, w: 1}
  m_LocalPosition: {x: 0, y: 0, z: 0}
  m_LocalScale: {x: 1, y: 1, z: 1}
  m_Children:
  - {fileID: 4204891735562688}
  - {fileID: 4337332219145742}
  - {fileID: 4837644557671746}
  - {fileID: 4850296520766792}
  - {fileID: 4635253028132724}
  - {fileID: 4551583521853252}
  - {fileID: 4748880326442530}
  m_Father: {fileID: 0}
  m_RootOrder: 0
  m_LocalEulerAnglesHint: {x: 0, y: 0, z: 0}
--- !u!4 &4551583521853252
Transform:
  m_ObjectHideFlags: 1
  m_PrefabParentObject: {fileID: 0}
  m_PrefabInternal: {fileID: 100100000}
  m_GameObject: {fileID: 1114777958619264}
  m_LocalRotation: {x: -0.6961402, y: -0.124053165, z: 0.6961395, w: 0.12405388}
  m_LocalPosition: {x: 0.000012080168, y: 2.9779272, z: -0.5836947}
  m_LocalScale: {x: 1, y: 1, z: 1}
  m_Children: []
  m_Father: {fileID: 4502365789287990}
  m_RootOrder: 5
  m_LocalEulerAnglesHint: {x: 0, y: 0, z: 0}
--- !u!4 &4635253028132724
Transform:
  m_ObjectHideFlags: 1
  m_PrefabParentObject: {fileID: 0}
  m_PrefabInternal: {fileID: 100100000}
  m_GameObject: {fileID: 1686949053480414}
  m_LocalRotation: {x: -0.30411494, y: -0.6383671, z: -0.30411518, w: -0.63836944}
  m_LocalPosition: {x: 0.23426215, y: 0.6717061, z: -2.7910922}
  m_LocalScale: {x: 1.0000019, y: 1.0000012, z: 1.000001}
  m_Children: []
  m_Father: {fileID: 4502365789287990}
  m_RootOrder: 4
  m_LocalEulerAnglesHint: {x: 0, y: 0, z: 0}
--- !u!4 &4748880326442530
Transform:
  m_ObjectHideFlags: 1
  m_PrefabParentObject: {fileID: 0}
  m_PrefabInternal: {fileID: 100100000}
  m_GameObject: {fileID: 1769928876231850}
  m_LocalRotation: {x: -0.7066786, y: 0.024621664, z: 0.70667744, w: 0.02462218}
  m_LocalPosition: {x: 0.000008819127, y: 3.4581976, z: 0.47792265}
  m_LocalScale: {x: 1.0000019, y: 1.0000027, z: 1.0000015}
  m_Children: []
  m_Father: {fileID: 4502365789287990}
  m_RootOrder: 6
  m_LocalEulerAnglesHint: {x: 0, y: 0, z: 0}
--- !u!4 &4837644557671746
Transform:
  m_ObjectHideFlags: 1
  m_PrefabParentObject: {fileID: 0}
  m_PrefabInternal: {fileID: 100100000}
  m_GameObject: {fileID: 1852823882275058}
  m_LocalRotation: {x: -0.53445375, y: -0.46298894, z: -0.53445536, w: -0.46298814}
  m_LocalPosition: {x: -0.24318896, y: 1.5755152, z: -3.097884}
  m_LocalScale: {x: 1.0000014, y: 1.0000014, z: 1.0000013}
  m_Children: []
  m_Father: {fileID: 4502365789287990}
  m_RootOrder: 2
  m_LocalEulerAnglesHint: {x: 0, y: 0, z: 0}
--- !u!4 &4850296520766792
Transform:
  m_ObjectHideFlags: 1
  m_PrefabParentObject: {fileID: 0}
  m_PrefabInternal: {fileID: 100100000}
  m_GameObject: {fileID: 1920561136369894}
  m_LocalRotation: {x: 0.6481067, y: 0.28743866, z: -0.6455365, w: -0.28393576}
  m_LocalPosition: {x: 0.28736946, y: 0.90612364, z: 3.1075935}
  m_LocalScale: {x: 1.0000025, y: 1.0000029, z: 1.000002}
  m_Children: []
  m_Father: {fileID: 4502365789287990}
  m_RootOrder: 3
  m_LocalEulerAnglesHint: {x: 0, y: 0, z: 0}
--- !u!95 &95014619185972436
Animator:
  serializedVersion: 3
  m_ObjectHideFlags: 1
  m_PrefabParentObject: {fileID: 0}
  m_PrefabInternal: {fileID: 100100000}
  m_GameObject: {fileID: 1577383571980870}
  m_Enabled: 1
  m_Avatar: {fileID: 9000000, guid: 1ae1a7919f89c804692374da3828a1d1, type: 3}
  m_Controller: {fileID: 9100000, guid: d8d98aaa1dcaec44398e25bdcc521d76, type: 2}
  m_CullingMode: 2
  m_UpdateMode: 1
  m_ApplyRootMotion: 0
  m_LinearVelocityBlending: 0
  m_WarningMessage: 
  m_HasTransformHierarchy: 0
  m_AllowConstantClipSamplingOptimization: 1
--- !u!114 &114378109881342108
MonoBehaviour:
  m_ObjectHideFlags: 1
  m_PrefabParentObject: {fileID: 0}
  m_PrefabInternal: {fileID: 100100000}
  m_GameObject: {fileID: 1577383571980870}
  m_Enabled: 1
  m_EditorHideFlags: 0
  m_Script: {fileID: 11500000, guid: 7409368713d5c3d4cabb6f121204de64, type: 3}
  m_Name: 
  m_EditorClassIdentifier: 
  effectT:
  - {fileID: 4837644557671746}
  - {fileID: 4635253028132724}
  - {fileID: 4337332219145742}
  - {fileID: 4850296520766792}
  - {fileID: 4204891735562688}
  effects:
  - {fileID: 1823399830502374, guid: eb8e5a5984f46f140abee69bd82e7f4e, type: 2}
  - {fileID: 1705795873037938, guid: 98f05b94e2937ab41aec045fc186eb35, type: 2}
  - {fileID: 1524025396917042, guid: 376bd756f092a1f419fccd1875136647, type: 2}
  - {fileID: 1671108611921388, guid: ed89c6d7e9b273c40b25d769a726c1c5, type: 2}
  - {fileID: 1785679038622544, guid: 0adbf2ecb032d7d46a3aeeb310bb45b7, type: 2}
--- !u!137 &137118167480684040
SkinnedMeshRenderer:
  m_ObjectHideFlags: 1
  m_PrefabParentObject: {fileID: 0}
  m_PrefabInternal: {fileID: 100100000}
  m_GameObject: {fileID: 1114777958619264}
  m_Enabled: 1
  m_CastShadows: 0
  m_ReceiveShadows: 0
  m_MotionVectors: 2
  m_LightProbeUsage: 0
  m_ReflectionProbeUsage: 0
  m_Materials:
  - {fileID: 2100000, guid: e5c3d101668e52543bbc5f4708289d78, type: 2}
  m_StaticBatchInfo:
    firstSubMesh: 0
    subMeshCount: 0
  m_StaticBatchRoot: {fileID: 0}
  m_ProbeAnchor: {fileID: 0}
  m_LightProbeVolumeOverride: {fileID: 0}
  m_ScaleInLightmap: 1
  m_PreserveUVs: 0
  m_IgnoreNormalsForChartDetection: 0
  m_ImportantGI: 0
  m_SelectedEditorRenderState: 3
  m_MinimumChartSize: 4
  m_AutoUVMaxDistance: 0.5
  m_AutoUVMaxAngle: 89
  m_LightmapParameters: {fileID: 0}
  m_SortingLayerID: 0
  m_SortingLayer: 0
  m_SortingOrder: 0
  serializedVersion: 2
  m_Quality: 0
  m_UpdateWhenOffscreen: 0
  m_SkinnedMotionVectors: 0
  m_Mesh: {fileID: 4300000, guid: 1ae1a7919f89c804692374da3828a1d1, type: 3}
  m_Bones: []
  m_BlendShapeWeights: []
  m_RootBone: {fileID: 0}
  m_AABB:
    m_Center: {x: -0.847615, y: -0.21379375, z: 0.0052398443}
    m_Extent: {x: 3.913697, y: 3.4039965, z: 1.4522431}
  m_DirtyAABB: 0
