0 - 30 loop move
50 - 100 loop stand
****************下面为额外骨骼导出***************
ride
[Bip02 L Toe0]
[Bip02 R Toe0]
[Bip02 L Finger0]
[Bip02 R Hand]
[Bip02 Head]
****************下面为特效绑定*******************
[Bip02 L Toe0] effect/ride/540050/Bip02_L_Toe0.prefab
[Bip02 R Toe0] effect/ride/540050/Bip02_R_Toe0.prefab
[Bip02 L Finger0] effect/ride/540050/Bip02_L_Finger0.prefab
[Bip02 R Hand] effect/ride/540050/Bip02_R_Hand.prefab
[Bip02 Head] effect/ride/540050/Bip02_Head.prefab