0 - 60 loop stand
****************下面为额外骨骼导出***************
[Bone004(mirrored)]
[Bone004]
[Bone021(mirrored)]
[Bone021]
****************下面为特效绑定*******************
[Bone004(mirrored)] effect/wing/3650008/Bone004mirrored.prefab
[Bone004] effect/wing/3650008/Bone004.prefab
[Bone021(mirrored)] effect/wing/3650008/Bone021mirrored.prefab
[Bone021] effect/wing/3650008/Bone021.prefab