%YAML 1.1
%TAG !u! tag:unity3d.com,2011:
--- !u!74 &7400000
AnimationClip:
  m_ObjectHideFlags: 0
  m_PrefabParentObject: {fileID: 0}
  m_PrefabInternal: {fileID: 0}
  m_Name: 105
  serializedVersion: 6
  m_Legacy: 0
  m_Compressed: 0
  m_UseHighQualityCurve: 1
  m_RotationCurves: []
  m_CompressedRotationCurves: []
  m_EulerCurves: []
  m_PositionCurves: []
  m_ScaleCurves: []
  m_FloatCurves: []
  m_PPtrCurves:
  - curve:
    - time: 0
      value: {fileID: 21300064, guid: bca6e3b1b0101554a873ea8228e8502c, type: 3}
    - time: 0.1
      value: {fileID: 21300074, guid: bca6e3b1b0101554a873ea8228e8502c, type: 3}
    - time: 0.2
      value: {fileID: 21300060, guid: bca6e3b1b0101554a873ea8228e8502c, type: 3}
    - time: 0.3
      value: {fileID: 21300068, guid: bca6e3b1b0101554a873ea8228e8502c, type: 3}
    - time: 0.4
      value: {fileID: 21300072, guid: bca6e3b1b0101554a873ea8228e8502c, type: 3}
    - time: 0.5
      value: {fileID: 21300062, guid: bca6e3b1b0101554a873ea8228e8502c, type: 3}
    - time: 0.6
      value: {fileID: 21300056, guid: bca6e3b1b0101554a873ea8228e8502c, type: 3}
    - time: 0.7
      value: {fileID: 21300058, guid: bca6e3b1b0101554a873ea8228e8502c, type: 3}
    - time: 0.8
      value: {fileID: 21300066, guid: bca6e3b1b0101554a873ea8228e8502c, type: 3}
    - time: 0.90000004
      value: {fileID: 21300076, guid: bca6e3b1b0101554a873ea8228e8502c, type: 3}
    - time: 1
      value: {fileID: 21300054, guid: bca6e3b1b0101554a873ea8228e8502c, type: 3}
    - time: 1.1
      value: {fileID: 21300070, guid: bca6e3b1b0101554a873ea8228e8502c, type: 3}
    attribute: m_Sprite
    path: 
    classID: 114
    script: {fileID: -765806418, guid: f70555f144d8491a825f0804e09c671c, type: 3}
  m_SampleRate: 10
  m_WrapMode: 0
  m_Bounds:
    m_Center: {x: 0, y: 0, z: 0}
    m_Extent: {x: 0, y: 0, z: 0}
  m_ClipBindingConstant:
    genericBindings:
    - serializedVersion: 2
      path: 0
      attribute: 2015549526
      script: {fileID: -765806418, guid: f70555f144d8491a825f0804e09c671c, type: 3}
      typeID: 114
      customType: 0
      isPPtrCurve: 1
    pptrCurveMapping:
    - {fileID: 21300064, guid: bca6e3b1b0101554a873ea8228e8502c, type: 3}
    - {fileID: 21300074, guid: bca6e3b1b0101554a873ea8228e8502c, type: 3}
    - {fileID: 21300060, guid: bca6e3b1b0101554a873ea8228e8502c, type: 3}
    - {fileID: 21300068, guid: bca6e3b1b0101554a873ea8228e8502c, type: 3}
    - {fileID: 21300072, guid: bca6e3b1b0101554a873ea8228e8502c, type: 3}
    - {fileID: 21300062, guid: bca6e3b1b0101554a873ea8228e8502c, type: 3}
    - {fileID: 21300056, guid: bca6e3b1b0101554a873ea8228e8502c, type: 3}
    - {fileID: 21300058, guid: bca6e3b1b0101554a873ea8228e8502c, type: 3}
    - {fileID: 21300066, guid: bca6e3b1b0101554a873ea8228e8502c, type: 3}
    - {fileID: 21300076, guid: bca6e3b1b0101554a873ea8228e8502c, type: 3}
    - {fileID: 21300054, guid: bca6e3b1b0101554a873ea8228e8502c, type: 3}
    - {fileID: 21300070, guid: bca6e3b1b0101554a873ea8228e8502c, type: 3}
  m_AnimationClipSettings:
    serializedVersion: 2
    m_AdditiveReferencePoseClip: {fileID: 0}
    m_AdditiveReferencePoseTime: 0
    m_StartTime: 0
    m_StopTime: 1.2
    m_OrientationOffsetY: 0
    m_Level: 0
    m_CycleOffset: 0
    m_HasAdditiveReferencePose: 0
    m_LoopTime: 1
    m_LoopBlend: 0
    m_LoopBlendOrientation: 0
    m_LoopBlendPositionY: 0
    m_LoopBlendPositionXZ: 0
    m_KeepOriginalOrientation: 0
    m_KeepOriginalPositionY: 1
    m_KeepOriginalPositionXZ: 0
    m_HeightFromFeet: 0
    m_Mirror: 0
  m_EditorCurves: []
  m_EulerEditorCurves: []
  m_HasGenericRootTransform: 0
  m_HasMotionFloatCurves: 0
  m_GenerateMotionCurves: 0
  m_Events: []
