%YAML 1.1
%TAG !u! tag:unity3d.com,2011:
--- !u!74 &7400000
AnimationClip:
  m_ObjectHideFlags: 0
  m_PrefabParentObject: {fileID: 0}
  m_PrefabInternal: {fileID: 0}
  m_Name: hunli2
  serializedVersion: 6
  m_Legacy: 0
  m_Compressed: 0
  m_UseHighQualityCurve: 1
  m_RotationCurves: []
  m_CompressedRotationCurves: []
  m_EulerCurves: []
  m_PositionCurves: []
  m_ScaleCurves: []
  m_FloatCurves: []
  m_PPtrCurves:
  - curve:
    - time: 0
      value: {fileID: 21300000, guid: 88a7c89d10a6f7645b25fb68fc03b3e8, type: 3}
    - time: 0.05
      value: {fileID: 21300000, guid: aeccb79280f0d654781968bf7efc2fbb, type: 3}
    - time: 0.1
      value: {fileID: 21300000, guid: e7ee1fdd563fca54ca5a35f35af251e0, type: 3}
    - time: 0.15
      value: {fileID: 21300000, guid: 858a56d9052f453479173796a9225b28, type: 3}
    - time: 0.2
      value: {fileID: 21300000, guid: 987cfd862eb629a479f63918a75bd780, type: 3}
    - time: 0.25
      value: {fileID: 21300000, guid: a2b86c4aa831eba46ab2b82584178493, type: 3}
    - time: 0.3
      value: {fileID: 21300000, guid: 5fe2070394d27ac45bd4b3995a746d38, type: 3}
    - time: 0.35
      value: {fileID: 21300000, guid: 77348a2a095ddeb4592282a0cb63354a, type: 3}
    - time: 0.4
      value: {fileID: 21300000, guid: ffc5620ab00a41540a9033311cb9d085, type: 3}
    - time: 0.45
      value: {fileID: 21300000, guid: fd21eaa9eb5c34e43939787f338138af, type: 3}
    - time: 0.5
      value: {fileID: 21300000, guid: ccabb1b03164c8841b84ed94619bbaed, type: 3}
    - time: 0.55
      value: {fileID: 21300000, guid: 9466515665ea98b4d8593e4812a6f942, type: 3}
    - time: 0.6
      value: {fileID: 21300000, guid: 6ee94cdaf86efa4478fd912aab39f635, type: 3}
    - time: 0.65
      value: {fileID: 21300000, guid: 19af9a530c13b594bba5b10dd31098a0, type: 3}
    - time: 0.7
      value: {fileID: 21300000, guid: bbe58cc390b7e4d42b80e2b43bf4cbd3, type: 3}
    - time: 0.75
      value: {fileID: 21300000, guid: 2b02ee52a94832746b16e82a77315f4e, type: 3}
    attribute: m_Sprite
    path: effs
    classID: 114
    script: {fileID: -765806418, guid: f70555f144d8491a825f0804e09c671c, type: 3}
  m_SampleRate: 20
  m_WrapMode: 0
  m_Bounds:
    m_Center: {x: 0, y: 0, z: 0}
    m_Extent: {x: 0, y: 0, z: 0}
  m_ClipBindingConstant:
    genericBindings:
    - serializedVersion: 2
      path: 2605548312
      attribute: 2015549526
      script: {fileID: -765806418, guid: f70555f144d8491a825f0804e09c671c, type: 3}
      typeID: 114
      customType: 0
      isPPtrCurve: 1
    pptrCurveMapping:
    - {fileID: 21300000, guid: 88a7c89d10a6f7645b25fb68fc03b3e8, type: 3}
    - {fileID: 21300000, guid: aeccb79280f0d654781968bf7efc2fbb, type: 3}
    - {fileID: 21300000, guid: e7ee1fdd563fca54ca5a35f35af251e0, type: 3}
    - {fileID: 21300000, guid: 858a56d9052f453479173796a9225b28, type: 3}
    - {fileID: 21300000, guid: 987cfd862eb629a479f63918a75bd780, type: 3}
    - {fileID: 21300000, guid: a2b86c4aa831eba46ab2b82584178493, type: 3}
    - {fileID: 21300000, guid: 5fe2070394d27ac45bd4b3995a746d38, type: 3}
    - {fileID: 21300000, guid: 77348a2a095ddeb4592282a0cb63354a, type: 3}
    - {fileID: 21300000, guid: ffc5620ab00a41540a9033311cb9d085, type: 3}
    - {fileID: 21300000, guid: fd21eaa9eb5c34e43939787f338138af, type: 3}
    - {fileID: 21300000, guid: ccabb1b03164c8841b84ed94619bbaed, type: 3}
    - {fileID: 21300000, guid: 9466515665ea98b4d8593e4812a6f942, type: 3}
    - {fileID: 21300000, guid: 6ee94cdaf86efa4478fd912aab39f635, type: 3}
    - {fileID: 21300000, guid: 19af9a530c13b594bba5b10dd31098a0, type: 3}
    - {fileID: 21300000, guid: bbe58cc390b7e4d42b80e2b43bf4cbd3, type: 3}
    - {fileID: 21300000, guid: 2b02ee52a94832746b16e82a77315f4e, type: 3}
  m_AnimationClipSettings:
    serializedVersion: 2
    m_AdditiveReferencePoseClip: {fileID: 0}
    m_AdditiveReferencePoseTime: 0
    m_StartTime: 0
    m_StopTime: 0.8
    m_OrientationOffsetY: 0
    m_Level: 0
    m_CycleOffset: 0
    m_HasAdditiveReferencePose: 0
    m_LoopTime: 1
    m_LoopBlend: 0
    m_LoopBlendOrientation: 0
    m_LoopBlendPositionY: 0
    m_LoopBlendPositionXZ: 0
    m_KeepOriginalOrientation: 0
    m_KeepOriginalPositionY: 1
    m_KeepOriginalPositionXZ: 0
    m_HeightFromFeet: 0
    m_Mirror: 0
  m_EditorCurves: []
  m_EulerEditorCurves: []
  m_HasGenericRootTransform: 0
  m_HasMotionFloatCurves: 0
  m_GenerateMotionCurves: 0
  m_Events: []
