40 - 100 loop stand
****************下面为额外骨骼导出***************
Bone01(mirrored)04
Bone05(mirrored)05
Bone17(mirrored)04
Bone23(mirrored)05
Bone25(mirrored)02
Bone112
Bone114
Bone116
Bone118
Bone120
****************下面为特效绑定*******************
