****************重定义 模型位置 蒙皮筛选(逗号分割) 材质球位置*************************
model/shengqi/shenshi [1055041] model/shengqi/1055041
****************下面为额外骨骼导出***************
1055041
****************下面为特效绑定*******************
1055041 effect/shengqi/1055041_1.prefab


