5 - 45 loop stand
55 - 73 loop move

****************下面为额外骨骼导出***************
ride
Bone005
[Bip001 Neck]
****************下面为特效绑定*******************
Bone005 effect/ride/540067/540067_Bone005.prefab
[Bip001 Neck] effect/ride/540067/540067_Bip001_Neck.prefab
