3-60 loop stand
300-340 loop stand_fight
660-820 loop idle
169-191 loop move
617-640 noloop attack1
553-584 noloop attack2
3-60 noloop upgrade
833-1010 noloop show
279-290 noloop behit
220-270 noloop dead
****************下面为额外骨骼导出***************
weapon


