%YAML 1.1
%TAG !u! tag:unity3d.com,2011:
--- !u!1001 &100100000
Prefab:
  m_ObjectHideFlags: 1
  serializedVersion: 2
  m_Modification:
    m_TransformParent: {fileID: 0}
    m_Modifications: []
    m_RemovedComponents: []
  m_ParentPrefab: {fileID: 0}
  m_RootGameObject: {fileID: 1880039059011646}
  m_IsPrefabParent: 1
--- !u!1 &1057538171497906
GameObject:
  m_ObjectHideFlags: 0
  m_PrefabParentObject: {fileID: 0}
  m_PrefabInternal: {fileID: 100100000}
  serializedVersion: 5
  m_Component:
  - component: {fileID: 4272099582492344}
  m_Layer: 0
  m_Name: Bone003
  m_TagString: Untagged
  m_Icon: {fileID: 0}
  m_NavMeshLayer: 0
  m_StaticEditorFlags: 0
  m_IsActive: 1
--- !u!1 &1156686167599258
GameObject:
  m_ObjectHideFlags: 0
  m_PrefabParentObject: {fileID: 0}
  m_PrefabInternal: {fileID: 100100000}
  serializedVersion: 5
  m_Component:
  - component: {fileID: 4574418423168656}
  m_Layer: 0
  m_Name: ride
  m_TagString: Untagged
  m_Icon: {fileID: 0}
  m_NavMeshLayer: 0
  m_StaticEditorFlags: 0
  m_IsActive: 1
--- !u!1 &1322875076734666
GameObject:
  m_ObjectHideFlags: 0
  m_PrefabParentObject: {fileID: 0}
  m_PrefabInternal: {fileID: 100100000}
  serializedVersion: 5
  m_Component:
  - component: {fileID: 4694888384141220}
  m_Layer: 0
  m_Name: Bip02 L Hand
  m_TagString: Untagged
  m_Icon: {fileID: 0}
  m_NavMeshLayer: 0
  m_StaticEditorFlags: 0
  m_IsActive: 1
--- !u!1 &1461491947477412
GameObject:
  m_ObjectHideFlags: 0
  m_PrefabParentObject: {fileID: 0}
  m_PrefabInternal: {fileID: 100100000}
  serializedVersion: 5
  m_Component:
  - component: {fileID: 4658324120593474}
  m_Layer: 0
  m_Name: Bip02 Neck1
  m_TagString: Untagged
  m_Icon: {fileID: 0}
  m_NavMeshLayer: 0
  m_StaticEditorFlags: 0
  m_IsActive: 1
--- !u!1 &1534064086377468
GameObject:
  m_ObjectHideFlags: 0
  m_PrefabParentObject: {fileID: 0}
  m_PrefabInternal: {fileID: 100100000}
  serializedVersion: 5
  m_Component:
  - component: {fileID: 4005977885228340}
  m_Layer: 0
  m_Name: Bip02 Head
  m_TagString: Untagged
  m_Icon: {fileID: 0}
  m_NavMeshLayer: 0
  m_StaticEditorFlags: 0
  m_IsActive: 1
--- !u!1 &1643378265798632
GameObject:
  m_ObjectHideFlags: 0
  m_PrefabParentObject: {fileID: 0}
  m_PrefabInternal: {fileID: 100100000}
  serializedVersion: 5
  m_Component:
  - component: {fileID: 4276892659808818}
  m_Layer: 0
  m_Name: Bip02 L Foot
  m_TagString: Untagged
  m_Icon: {fileID: 0}
  m_NavMeshLayer: 0
  m_StaticEditorFlags: 0
  m_IsActive: 1
--- !u!1 &1756128503114464
GameObject:
  m_ObjectHideFlags: 0
  m_PrefabParentObject: {fileID: 0}
  m_PrefabInternal: {fileID: 100100000}
  serializedVersion: 5
  m_Component:
  - component: {fileID: 4916319488044970}
  - component: {fileID: 137050926183903592}
  m_Layer: 0
  m_Name: model
  m_TagString: Untagged
  m_Icon: {fileID: 0}
  m_NavMeshLayer: 0
  m_StaticEditorFlags: 0
  m_IsActive: 1
--- !u!1 &1813868762833546
GameObject:
  m_ObjectHideFlags: 0
  m_PrefabParentObject: {fileID: 0}
  m_PrefabInternal: {fileID: 100100000}
  serializedVersion: 5
  m_Component:
  - component: {fileID: 4303665891418722}
  m_Layer: 0
  m_Name: Bip02 R Hand
  m_TagString: Untagged
  m_Icon: {fileID: 0}
  m_NavMeshLayer: 0
  m_StaticEditorFlags: 0
  m_IsActive: 1
--- !u!1 &1848347239687000
GameObject:
  m_ObjectHideFlags: 0
  m_PrefabParentObject: {fileID: 0}
  m_PrefabInternal: {fileID: 100100000}
  serializedVersion: 5
  m_Component:
  - component: {fileID: 4174023540441928}
  m_Layer: 0
  m_Name: Bip02 Neck
  m_TagString: Untagged
  m_Icon: {fileID: 0}
  m_NavMeshLayer: 0
  m_StaticEditorFlags: 0
  m_IsActive: 1
--- !u!1 &1880039059011646
GameObject:
  m_ObjectHideFlags: 0
  m_PrefabParentObject: {fileID: 0}
  m_PrefabInternal: {fileID: 100100000}
  serializedVersion: 5
  m_Component:
  - component: {fileID: 4003996059038964}
  - component: {fileID: 95802674386642254}
  - component: {fileID: 114239268048890522}
  m_Layer: 0
  m_Name: 1540068
  m_TagString: Untagged
  m_Icon: {fileID: 0}
  m_NavMeshLayer: 0
  m_StaticEditorFlags: 0
  m_IsActive: 1
--- !u!1 &1899030076970310
GameObject:
  m_ObjectHideFlags: 0
  m_PrefabParentObject: {fileID: 0}
  m_PrefabInternal: {fileID: 100100000}
  serializedVersion: 5
  m_Component:
  - component: {fileID: 4097919898835800}
  m_Layer: 0
  m_Name: Bip02 Spine2
  m_TagString: Untagged
  m_Icon: {fileID: 0}
  m_NavMeshLayer: 0
  m_StaticEditorFlags: 0
  m_IsActive: 1
--- !u!1 &1938636525879334
GameObject:
  m_ObjectHideFlags: 0
  m_PrefabParentObject: {fileID: 0}
  m_PrefabInternal: {fileID: 100100000}
  serializedVersion: 5
  m_Component:
  - component: {fileID: 4666072026996902}
  m_Layer: 0
  m_Name: Bip02 R Foot
  m_TagString: Untagged
  m_Icon: {fileID: 0}
  m_NavMeshLayer: 0
  m_StaticEditorFlags: 0
  m_IsActive: 1
--- !u!4 &4003996059038964
Transform:
  m_ObjectHideFlags: 1
  m_PrefabParentObject: {fileID: 0}
  m_PrefabInternal: {fileID: 100100000}
  m_GameObject: {fileID: 1880039059011646}
  m_LocalRotation: {x: 0, y: 0, z: 0, w: 1}
  m_LocalPosition: {x: 0, y: 0, z: 0}
  m_LocalScale: {x: 1, y: 1, z: 1}
  m_Children:
  - {fileID: 4005977885228340}
  - {fileID: 4276892659808818}
  - {fileID: 4694888384141220}
  - {fileID: 4174023540441928}
  - {fileID: 4658324120593474}
  - {fileID: 4666072026996902}
  - {fileID: 4303665891418722}
  - {fileID: 4097919898835800}
  - {fileID: 4272099582492344}
  - {fileID: 4916319488044970}
  - {fileID: 4574418423168656}
  m_Father: {fileID: 0}
  m_RootOrder: 0
  m_LocalEulerAnglesHint: {x: 0, y: 0, z: 0}
--- !u!4 &4005977885228340
Transform:
  m_ObjectHideFlags: 1
  m_PrefabParentObject: {fileID: 0}
  m_PrefabInternal: {fileID: 100100000}
  m_GameObject: {fileID: 1534064086377468}
  m_LocalRotation: {x: -0.60738593, y: 0.36205116, z: 0.6073875, w: -0.3620521}
  m_LocalPosition: {x: 0.0000017224271, y: 4.279382, z: 2.1155705}
  m_LocalScale: {x: 1.0000024, y: 1.0000027, z: 1.0000019}
  m_Children: []
  m_Father: {fileID: 4003996059038964}
  m_RootOrder: 0
  m_LocalEulerAnglesHint: {x: 0, y: 0, z: 0}
--- !u!4 &4097919898835800
Transform:
  m_ObjectHideFlags: 1
  m_PrefabParentObject: {fileID: 0}
  m_PrefabInternal: {fileID: 100100000}
  m_GameObject: {fileID: 1899030076970310}
  m_LocalRotation: {x: -0.7062925, y: 0.03392312, z: 0.7062927, w: -0.03392422}
  m_LocalPosition: {x: -0.00000007190223, y: 2.5520427, z: 0.6682518}
  m_LocalScale: {x: 1.0000007, y: 1.0000012, z: 1.0000004}
  m_Children: []
  m_Father: {fileID: 4003996059038964}
  m_RootOrder: 7
  m_LocalEulerAnglesHint: {x: 0, y: 0, z: 0}
--- !u!4 &4174023540441928
Transform:
  m_ObjectHideFlags: 1
  m_PrefabParentObject: {fileID: 0}
  m_PrefabInternal: {fileID: 100100000}
  m_GameObject: {fileID: 1848347239687000}
  m_LocalRotation: {x: -0.5969667, y: 0.3789849, z: 0.59696823, w: -0.37898582}
  m_LocalPosition: {x: -0.0000003074036, y: 3.2295296, z: 1.3633574}
  m_LocalScale: {x: 1.0000018, y: 1.0000015, z: 1.0000008}
  m_Children: []
  m_Father: {fileID: 4003996059038964}
  m_RootOrder: 3
  m_LocalEulerAnglesHint: {x: 0, y: 0, z: 0}
--- !u!4 &4272099582492344
Transform:
  m_ObjectHideFlags: 1
  m_PrefabParentObject: {fileID: 0}
  m_PrefabInternal: {fileID: 100100000}
  m_GameObject: {fileID: 1057538171497906}
  m_LocalRotation: {x: -0.70708025, y: -0.006130256, z: -0.7070802, w: -0.0061300257}
  m_LocalPosition: {x: -0.000000028539787, y: 2.9203184, z: -3.3883562}
  m_LocalScale: {x: 1.0000004, y: 1.0000011, z: 1}
  m_Children: []
  m_Father: {fileID: 4003996059038964}
  m_RootOrder: 8
  m_LocalEulerAnglesHint: {x: 0, y: 0, z: 0}
--- !u!4 &4276892659808818
Transform:
  m_ObjectHideFlags: 1
  m_PrefabParentObject: {fileID: 0}
  m_PrefabInternal: {fileID: 100100000}
  m_GameObject: {fileID: 1643378265798632}
  m_LocalRotation: {x: -0.49871024, y: -0.50128657, z: -0.49870956, w: -0.50128704}
  m_LocalPosition: {x: -0.29873088, y: 0.36267424, z: -1.4814131}
  m_LocalScale: {x: 1.0000007, y: 1.0000008, z: 1.0000004}
  m_Children: []
  m_Father: {fileID: 4003996059038964}
  m_RootOrder: 1
  m_LocalEulerAnglesHint: {x: 0, y: 0, z: 0}
--- !u!4 &4303665891418722
Transform:
  m_ObjectHideFlags: 1
  m_PrefabParentObject: {fileID: 0}
  m_PrefabInternal: {fileID: 100100000}
  m_GameObject: {fileID: 1813868762833546}
  m_LocalRotation: {x: 0.49415678, y: 0.47359088, z: -0.52291036, w: -0.50802124}
  m_LocalPosition: {x: 0.36339426, y: 0.42369264, z: 1.282148}
  m_LocalScale: {x: 1.0000017, y: 1.0000021, z: 1.0000018}
  m_Children: []
  m_Father: {fileID: 4003996059038964}
  m_RootOrder: 6
  m_LocalEulerAnglesHint: {x: 0, y: 0, z: 0}
--- !u!4 &4574418423168656
Transform:
  m_ObjectHideFlags: 1
  m_PrefabParentObject: {fileID: 0}
  m_PrefabInternal: {fileID: 100100000}
  m_GameObject: {fileID: 1156686167599258}
  m_LocalRotation: {x: -0.7068925, y: 0.017381674, z: 0.70689374, w: 0.017381843}
  m_LocalPosition: {x: -0.0000087358385, y: 3.379993, z: -0.0059172213}
  m_LocalScale: {x: 1.0000005, y: 1.0000002, z: 1.0000001}
  m_Children: []
  m_Father: {fileID: 4003996059038964}
  m_RootOrder: 10
  m_LocalEulerAnglesHint: {x: 0, y: 0, z: 0}
--- !u!4 &4658324120593474
Transform:
  m_ObjectHideFlags: 1
  m_PrefabParentObject: {fileID: 0}
  m_PrefabInternal: {fileID: 100100000}
  m_GameObject: {fileID: 1461491947477412}
  m_LocalRotation: {x: -0.6136418, y: 0.3513439, z: 0.6136433, w: -0.35134488}
  m_LocalPosition: {x: 0.0000005273216, y: 3.8535788, z: 1.6561952}
  m_LocalScale: {x: 1.0000021, y: 1.0000023, z: 1.0000013}
  m_Children: []
  m_Father: {fileID: 4003996059038964}
  m_RootOrder: 4
  m_LocalEulerAnglesHint: {x: 0, y: 0, z: 0}
--- !u!4 &4666072026996902
Transform:
  m_ObjectHideFlags: 1
  m_PrefabParentObject: {fileID: 0}
  m_PrefabInternal: {fileID: 100100000}
  m_GameObject: {fileID: 1938636525879334}
  m_LocalRotation: {x: -0.4987103, y: -0.50128645, z: -0.49870953, w: -0.5012871}
  m_LocalPosition: {x: 0.29872453, y: 0.3626721, z: -1.4814122}
  m_LocalScale: {x: 1.0000023, y: 1.0000024, z: 1.0000015}
  m_Children: []
  m_Father: {fileID: 4003996059038964}
  m_RootOrder: 5
  m_LocalEulerAnglesHint: {x: 0, y: 0, z: 0}
--- !u!4 &4694888384141220
Transform:
  m_ObjectHideFlags: 1
  m_PrefabParentObject: {fileID: 0}
  m_PrefabInternal: {fileID: 100100000}
  m_GameObject: {fileID: 1322875076734666}
  m_LocalRotation: {x: -0.52291095, y: -0.5080205, z: 0.49415612, w: 0.4735917}
  m_LocalPosition: {x: -0.36339983, y: 0.42369366, z: 1.2821476}
  m_LocalScale: {x: 1.0000026, y: 1.0000026, z: 1.0000025}
  m_Children: []
  m_Father: {fileID: 4003996059038964}
  m_RootOrder: 2
  m_LocalEulerAnglesHint: {x: 0, y: 0, z: 0}
--- !u!4 &4916319488044970
Transform:
  m_ObjectHideFlags: 1
  m_PrefabParentObject: {fileID: 0}
  m_PrefabInternal: {fileID: 100100000}
  m_GameObject: {fileID: 1756128503114464}
  m_LocalRotation: {x: -0.70707154, y: 0.0070107845, z: 0.70707256, w: -0.0070089367}
  m_LocalPosition: {x: -0.000000029478734, y: 2.8014293, z: -1.2006037}
  m_LocalScale: {x: 1.0000002, y: 1.0000005, z: 1}
  m_Children: []
  m_Father: {fileID: 4003996059038964}
  m_RootOrder: 9
  m_LocalEulerAnglesHint: {x: 0, y: 0, z: 0}
--- !u!95 &95802674386642254
Animator:
  serializedVersion: 3
  m_ObjectHideFlags: 1
  m_PrefabParentObject: {fileID: 0}
  m_PrefabInternal: {fileID: 100100000}
  m_GameObject: {fileID: 1880039059011646}
  m_Enabled: 1
  m_Avatar: {fileID: 9000000, guid: 4c0f0a2fe6e71fa40a4a3c3f3e090048, type: 3}
  m_Controller: {fileID: 9100000, guid: c5f24374d8c9ae742bcd46a5dd7448dc, type: 2}
  m_CullingMode: 2
  m_UpdateMode: 1
  m_ApplyRootMotion: 0
  m_LinearVelocityBlending: 0
  m_WarningMessage: 
  m_HasTransformHierarchy: 0
  m_AllowConstantClipSamplingOptimization: 1
--- !u!114 &114239268048890522
MonoBehaviour:
  m_ObjectHideFlags: 1
  m_PrefabParentObject: {fileID: 0}
  m_PrefabInternal: {fileID: 100100000}
  m_GameObject: {fileID: 1880039059011646}
  m_Enabled: 1
  m_EditorHideFlags: 0
  m_Script: {fileID: 11500000, guid: 7409368713d5c3d4cabb6f121204de64, type: 3}
  m_Name: 
  m_EditorClassIdentifier: 
  effectT:
  - {fileID: 4005977885228340}
  - {fileID: 4276892659808818}
  - {fileID: 4694888384141220}
  - {fileID: 4174023540441928}
  - {fileID: 4658324120593474}
  - {fileID: 4666072026996902}
  - {fileID: 4303665891418722}
  - {fileID: 4097919898835800}
  - {fileID: 4272099582492344}
  effects:
  - {fileID: 1650922971937272, guid: 777fda3422bde934faa96ad8f1a7ae6d, type: 2}
  - {fileID: 1884261399091038, guid: fb6c3bba8547c744095746b7a1c9f06a, type: 2}
  - {fileID: 1709021848243392, guid: fa9d264a62d966740bb2056219a76d5d, type: 2}
  - {fileID: 1906959865298094, guid: 8fc0c417d8936f743a3ac193bf0804f8, type: 2}
  - {fileID: 1038539735063082, guid: 7d9c7a4e2dd47f44a8ae67516271bc87, type: 2}
  - {fileID: 1405918822659614, guid: 8427f510e10fef546aac22922737c410, type: 2}
  - {fileID: 1814427095281462, guid: 00db0c7c2e4cc75499a406aacef16be7, type: 2}
  - {fileID: 1231677329374612, guid: e56848d8d452d59468b63c0c89151e9f, type: 2}
  - {fileID: 1572269083726668, guid: 7d07ec0db37c5ec449bd5f7ba905b64a, type: 2}
--- !u!137 &137050926183903592
SkinnedMeshRenderer:
  m_ObjectHideFlags: 1
  m_PrefabParentObject: {fileID: 0}
  m_PrefabInternal: {fileID: 100100000}
  m_GameObject: {fileID: 1756128503114464}
  m_Enabled: 1
  m_CastShadows: 0
  m_ReceiveShadows: 0
  m_MotionVectors: 2
  m_LightProbeUsage: 0
  m_ReflectionProbeUsage: 0
  m_Materials:
  - {fileID: 2100000, guid: f42d0b6d52c760c4f9c8df9542918129, type: 2}
  m_StaticBatchInfo:
    firstSubMesh: 0
    subMeshCount: 0
  m_StaticBatchRoot: {fileID: 0}
  m_ProbeAnchor: {fileID: 0}
  m_LightProbeVolumeOverride: {fileID: 0}
  m_ScaleInLightmap: 1
  m_PreserveUVs: 0
  m_IgnoreNormalsForChartDetection: 0
  m_ImportantGI: 0
  m_SelectedEditorRenderState: 3
  m_MinimumChartSize: 4
  m_AutoUVMaxDistance: 0.5
  m_AutoUVMaxAngle: 89
  m_LightmapParameters: {fileID: 0}
  m_SortingLayerID: 0
  m_SortingLayer: 0
  m_SortingOrder: 0
  serializedVersion: 2
  m_Quality: 0
  m_UpdateWhenOffscreen: 0
  m_SkinnedMotionVectors: 0
  m_Mesh: {fileID: 4300000, guid: 4c0f0a2fe6e71fa40a4a3c3f3e090048, type: 3}
  m_Bones: []
  m_BlendShapeWeights: []
  m_RootBone: {fileID: 0}
  m_AABB:
    m_Center: {x: -0.4854045, y: -0.23072386, z: 0.0000026226044}
    m_Extent: {x: 4.538253, y: 3.107372, z: 1.0695112}
  m_DirtyAABB: 0
