%YAML 1.1
%TAG !u! tag:unity3d.com,2011:
--- !u!128 &12800000
Font:
  m_ObjectHideFlags: 0
  m_PrefabParentObject: {fileID: 0}
  m_PrefabInternal: {fileID: 0}
  m_Name: newNum4
  serializedVersion: 5
  m_LineSpacing: 0.1
  m_DefaultMaterial: {fileID: 2100000, guid: d86532c9155947c4483e7997278e8002, type: 2}
  m_FontSize: 0
  m_Texture: {fileID: 0}
  m_AsciiStartOffset: 0
  m_Tracking: 1
  m_CharacterSpacing: 0
  m_CharacterPadding: 1
  m_ConvertCase: 0
  m_CharacterRects:
  - serializedVersion: 2
    index: 48
    uv:
      serializedVersion: 2
      x: 0
      y: 0.65625
      width: 0.12890625
      height: -0.3359375
    vert:
      serializedVersion: 2
      x: 0
      y: -43
      width: 33
      height: 43
    advance: 33
    flipped: 0
  - serializedVersion: 2
    index: 49
    uv:
      serializedVersion: 2
      x: 0.26171875
      y: 0.65625
      width: 0.0625
      height: -0.3359375
    vert:
      serializedVersion: 2
      x: 0
      y: -43
      width: 16
      height: 43
    advance: 16
    flipped: 0
  - serializedVersion: 2
    index: 50
    uv:
      serializedVersion: 2
      x: 0
      y: 1
      width: 0.13671875
      height: -0.3359375
    vert:
      serializedVersion: 2
      x: 0
      y: -43
      width: 35
      height: 43
    advance: 35
    flipped: 0
  - serializedVersion: 2
    index: 51
    uv:
      serializedVersion: 2
      x: 0.140625
      y: 1
      width: 0.13671875
      height: -0.3359375
    vert:
      serializedVersion: 2
      x: 0
      y: -43
      width: 35
      height: 43
    advance: 35
    flipped: 0
  - serializedVersion: 2
    index: 52
    uv:
      serializedVersion: 2
      x: 0.1328125
      y: 0.65625
      width: 0.125
      height: -0.3359375
    vert:
      serializedVersion: 2
      x: 0
      y: -43
      width: 32
      height: 43
    advance: 32
    flipped: 0
  - serializedVersion: 2
    index: 53
    uv:
      serializedVersion: 2
      x: 0.28125
      y: 1
      width: 0.13671875
      height: -0.3359375
    vert:
      serializedVersion: 2
      x: 0
      y: -43
      width: 35
      height: 43
    advance: 35
    flipped: 0
  - serializedVersion: 2
    index: 54
    uv:
      serializedVersion: 2
      x: 0.421875
      y: 1
      width: 0.13671875
      height: -0.3359375
    vert:
      serializedVersion: 2
      x: 0
      y: -43
      width: 35
      height: 43
    advance: 35
    flipped: 0
  - serializedVersion: 2
    index: 55
    uv:
      serializedVersion: 2
      x: 0.5625
      y: 1
      width: 0.13671875
      height: -0.3359375
    vert:
      serializedVersion: 2
      x: 0
      y: -43
      width: 35
      height: 43
    advance: 35
    flipped: 0
  - serializedVersion: 2
    index: 56
    uv:
      serializedVersion: 2
      x: 0.84375
      y: 1
      width: 0.1328125
      height: -0.3359375
    vert:
      serializedVersion: 2
      x: 0
      y: -43
      width: 34
      height: 43
    advance: 34
    flipped: 0
  - serializedVersion: 2
    index: 57
    uv:
      serializedVersion: 2
      x: 0.703125
      y: 1
      width: 0.13671875
      height: -0.3359375
    vert:
      serializedVersion: 2
      x: 0
      y: -43
      width: 35
      height: 43
    advance: 35
    flipped: 0
  m_KerningValues: []
  m_PixelScale: 0.1
  m_FontData: 
  m_Ascent: 0
  m_Descent: 0
  m_DefaultStyle: 0
  m_FontNames: []
  m_FallbackFonts: []
  m_FontRenderingMode: 0
