%YAML 1.1
%TAG !u! tag:unity3d.com,2011:
--- !u!21 &2100000
Material:
  serializedVersion: 6
  m_ObjectHideFlags: 0
  m_PrefabParentObject: {fileID: 0}
  m_PrefabInternal: {fileID: 0}
  m_Name: ci_364_00001
  m_Shader: {fileID: 4800000, guid: ca0bd4ff402b1d3428ae78e28630533f, type: 3}
  m_ShaderKeywords: _FLOW_ON _MASK_ON _SEPARATEALPHA_OFF
  m_LightmapFlags: 4
  m_EnableInstancingVariants: 0
  m_DoubleSidedGI: 0
  m_CustomRenderQueue: -1
  stringTagMap: {}
  disabledShaderPasses: []
  m_SavedProperties:
    serializedVersion: 3
    m_TexEnvs:
    - _AlphaTex:
        m_Texture: {fileID: 0}
        m_Scale: {x: 1, y: 1}
        m_Offset: {x: 0, y: 0}
    - _CutMaskTex:
        m_Texture: {fileID: 0}
        m_Scale: {x: 1, y: 1}
        m_Offset: {x: 0, y: 0}
    - _FlowTex:
        m_Texture: {fileID: 2800000, guid: e56e3fd313c41574fbbab7526bf58c6e, type: 3}
        m_Scale: {x: 1, y: 1}
        m_Offset: {x: 0, y: 0}
    - _MainTex:
        m_Texture: {fileID: 2800000, guid: 97cdba1d82391cb40ac13d2614483e3c, type: 3}
        m_Scale: {x: 8, y: 1}
        m_Offset: {x: 0, y: 0}
    - _MaskTex:
        m_Texture: {fileID: 2800000, guid: 854bd60580e1c7044a5624d4fbc596ae, type: 3}
        m_Scale: {x: 0, y: 1}
        m_Offset: {x: 0, y: 0}
    m_Floats:
    - _AlphaCtrl: 1
    - _Brightness: 6
    - _CutMaskRotate: 0
    - _CutMaskValue: 1.1
    - _Flow: 0
    - _FlowRotate: 0
    - _LuminosityAmount: 0
    - _MaskRotate: 90
    - _Rotate: 0
    - _SeparateAlpha: 0
    m_Colors:
    - _Color: {r: 0.32352942, g: 0.6640975, b: 1, a: 1}
    - _FlowUVParam: {r: 0, g: 0, b: 0.1, a: 1}
    - _MaskUVParam: {r: 0, g: 0, b: 1, a: 1}
    - _UVParam: {r: 0, g: 0.75, b: 1, a: 1}
    - _UVTile: {r: 0, g: 0, b: 1, a: 1}
