10 - 50 loop move
60 - 100 loop stand
****************下面为额外骨骼导出***************
Bone003
Bone017
Bone020
Bone035
****************下面为特效绑定*******************
Bone003 effect/shengling/510005/510005_Bone003.prefab
Bone017 effect/shengling/510005/510005_Bone017.prefab
Bone020 effect/shengling/510005/510005_Bone020.prefab
Bone035 effect/shengling/510005/510005_Bone035.prefab