5 - 35 loop stand
45 - 68 loop move
****************下面为额外骨骼导出***************
[Bip01 Head]
[Bip01 L Forearm]
[Bip01 R UpperArm]
Bone005
****************下面为特效绑定*******************
[Bip01 Head] effect/shengling/510011/510011_Bip01_Head.prefab
[Bip01 L Forearm] effect/shengling/510011/510011_Bip01_L_Forearm.prefab
[Bip01 R UpperArm] effect/shengling/510011/510011_Bip01_R_UpperArm.prefab
Bone005 effect/shengling/510011/510011_Bone005.prefab