10-70 loop stand
570-610 loop stand_fight
190-325 loop idle
440-464 loop move
400-430 noloop attack1
360-390 noloop attack2
80-186  noloop upgrade
620-750  noloop show
490-539 noloop dead
545-555 loop death
****************下面为额外骨骼导出***************
weapon