840 - 990 loop stand
840 - 990 loop idle
750 - 776 loop move
660 - 690 noloop attack1
700 - 735 noloop attack2
790 - 816 noloop upgrade
790 - 816 noloop show
****************下面为额外骨骼导出***************
Bone23
****************下面为特效绑定*******************
Bone23 effect/pet/200305/200305_show.prefab





