2 - 52 loop stand
60 - 85 loop move

****************下面为额外骨骼导出***************
ride
Bone033
Bone024
[Bip01 Head]
****************下面为特效绑定*******************
[Bip01 Head] effect/ride/540065/540065_Bip01_Head.prefab
Bone033 effect/ride/540065/540065_Bone033.prefab
Bone024 effect/ride/540065/540065_Bone024.prefab