0 - 40 loop stand
****************下面为额外骨骼导出***************
[Bone02]
[Bone02(mirrored)]
****************下面为特效绑定*******************
[Bone02] effect/wing/5631513/5631513_Bone02.prefab
[Bone02(mirrored)] effect/wing/5631513/5631513_Bone02mirrored.prefab