%YAML 1.1
%TAG !u! tag:unity3d.com,2011:
--- !u!128 &12800000
Font:
  m_ObjectHideFlags: 0
  m_PrefabParentObject: {fileID: 0}
  m_PrefabInternal: {fileID: 0}
  m_Name: pinstanceLv
  serializedVersion: 5
  m_AsciiStartOffset: 0
  m_Tracking: 1
  m_LineSpacing: 0.1
  m_CharacterSpacing: 0
  m_CharacterPadding: 1
  m_ConvertCase: 0
  m_DefaultMaterial: {fileID: 2100000, guid: aacbe67eaca382b40846fdebe5aea520, type: 2}
  m_CharacterRects:
  - serializedVersion: 2
    index: 48
    uv:
      serializedVersion: 2
      x: 0.3984375
      y: 1
      width: 0.1171875
      height: -0.390625
    vert:
      serializedVersion: 2
      x: 0
      y: -25
      width: 15
      height: 25
    advance: 15
    flipped: 0
  - serializedVersion: 2
    index: 49
    uv:
      serializedVersion: 2
      x: 0.25
      y: 0.59375
      width: 0.109375
      height: -0.390625
    vert:
      serializedVersion: 2
      x: 0
      y: -25
      width: 14
      height: 25
    advance: 14
    flipped: 0
  - serializedVersion: 2
    index: 50
    uv:
      serializedVersion: 2
      x: 0.5234375
      y: 1
      width: 0.1171875
      height: -0.390625
    vert:
      serializedVersion: 2
      x: 0
      y: -25
      width: 15
      height: 25
    advance: 15
    flipped: 0
  - serializedVersion: 2
    index: 51
    uv:
      serializedVersion: 2
      x: 0.6484375
      y: 1
      width: 0.1171875
      height: -0.390625
    vert:
      serializedVersion: 2
      x: 0
      y: -25
      width: 15
      height: 25
    advance: 15
    flipped: 0
  - serializedVersion: 2
    index: 52
    uv:
      serializedVersion: 2
      x: 0
      y: 1
      width: 0.125
      height: -0.390625
    vert:
      serializedVersion: 2
      x: 0
      y: -25
      width: 16
      height: 25
    advance: 16
    flipped: 0
  - serializedVersion: 2
    index: 53
    uv:
      serializedVersion: 2
      x: 0.7734375
      y: 1
      width: 0.1171875
      height: -0.390625
    vert:
      serializedVersion: 2
      x: 0
      y: -25
      width: 15
      height: 25
    advance: 15
    flipped: 0
  - serializedVersion: 2
    index: 54
    uv:
      serializedVersion: 2
      x: 0.1328125
      y: 1
      width: 0.125
      height: -0.390625
    vert:
      serializedVersion: 2
      x: 0
      y: -25
      width: 16
      height: 25
    advance: 16
    flipped: 0
  - serializedVersion: 2
    index: 55
    uv:
      serializedVersion: 2
      x: 0
      y: 0.59375
      width: 0.1171875
      height: -0.390625
    vert:
      serializedVersion: 2
      x: 0
      y: -25
      width: 15
      height: 25
    advance: 15
    flipped: 0
  - serializedVersion: 2
    index: 56
    uv:
      serializedVersion: 2
      x: 0.125
      y: 0.59375
      width: 0.1171875
      height: -0.390625
    vert:
      serializedVersion: 2
      x: 0
      y: -25
      width: 15
      height: 25
    advance: 15
    flipped: 0
  - serializedVersion: 2
    index: 57
    uv:
      serializedVersion: 2
      x: 0.265625
      y: 1
      width: 0.125
      height: -0.390625
    vert:
      serializedVersion: 2
      x: 0
      y: -25
      width: 16
      height: 25
    advance: 16
    flipped: 0
  m_Texture: {fileID: 0}
  m_KerningValues: []
  m_PixelScale: 0.1
  m_FontData: 
  m_FontSize: 0
  m_Ascent: 0
  m_Descent: 0
  m_DefaultStyle: 0
  m_FontNames: []
  m_FallbackFonts: []
  m_FontRenderingMode: 0
